<?xml version="1.0" encoding="UTF-8" standalone="no"?>
<!-- Created with Inkscape (http://www.inkscape.org/) -->

<svg
   xmlns:dc="http://purl.org/dc/elements/1.1/"
   xmlns:cc="http://creativecommons.org/ns#"
   xmlns:rdf="http://www.w3.org/1999/02/22-rdf-syntax-ns#"
   xmlns:svg="http://www.w3.org/2000/svg"
   xmlns="http://www.w3.org/2000/svg"
   xmlns:xlink="http://www.w3.org/1999/xlink"
   xmlns:sodipodi="http://sodipodi.sourceforge.net/DTD/sodipodi-0.dtd"
   xmlns:inkscape="http://www.inkscape.org/namespaces/inkscape"
   version="1.1"
   id="svg2"
   width="457"
   height="406"
   viewBox="0 0 457 406"
   sodipodi:docname="FPGAinside.svg"
   inkscape:version="0.92.1 r15371"
   inkscape:export-filename="C:\Users\vinic\Desktop\FPGAinside.png"
   inkscape:export-xdpi="100"
   inkscape:export-ydpi="100">
  <metadata
     id="metadata8">
    <rdf:RDF>
      <cc:Work
         rdf:about="">
        <dc:format>image/svg+xml</dc:format>
        <dc:type
           rdf:resource="http://purl.org/dc/dcmitype/StillImage" />
        <dc:title />
      </cc:Work>
    </rdf:RDF>
  </metadata>
  <defs
     id="defs6" />
  <sodipodi:namedview
     pagecolor="#ffffff"
     bordercolor="#666666"
     borderopacity="1"
     objecttolerance="10"
     gridtolerance="10"
     guidetolerance="10"
     inkscape:pageopacity="0"
     inkscape:pageshadow="2"
     inkscape:window-width="1920"
     inkscape:window-height="1001"
     id="namedview4"
     showgrid="false"
     inkscape:zoom="2.3251232"
     inkscape:cx="131.98329"
     inkscape:cy="246.36925"
     inkscape:window-x="-9"
     inkscape:window-y="-9"
     inkscape:window-maximized="1"
     inkscape:current-layer="layer2" />
  <g
     inkscape:groupmode="layer"
     id="layer1"
     inkscape:label="Fundo"
     style="display:inline"
     sodipodi:insensitive="true">
    <image
       width="457"
       height="406"
       preserveAspectRatio="none"
       xlink:href="data:image/jpeg;base64,/9j/4AAQSkZJRgABAQEAYABgAAD/4QAiRXhpZgAATU0AKgAAAAgAAQESAAMAAAABAAEAAAAAAAD/ 2wBDAAIBAQIBAQICAgICAgICAwUDAwMDAwYEBAMFBwYHBwcGBwcICQsJCAgKCAcHCg0KCgsMDAwM BwkODw0MDgsMDAz/2wBDAQICAgMDAwYDAwYMCAcIDAwMDAwMDAwMDAwMDAwMDAwMDAwMDAwMDAwM DAwMDAwMDAwMDAwMDAwMDAwMDAwMDAz/wAARCAGWAckDASIAAhEBAxEB/8QAHwAAAQUBAQEBAQEA AAAAAAAAAAECAwQFBgcICQoL/8QAtRAAAgEDAwIEAwUFBAQAAAF9AQIDAAQRBRIhMUEGE1FhByJx FDKBkaEII0KxwRVS0fAkM2JyggkKFhcYGRolJicoKSo0NTY3ODk6Q0RFRkdISUpTVFVWV1hZWmNk ZWZnaGlqc3R1dnd4eXqDhIWGh4iJipKTlJWWl5iZmqKjpKWmp6ipqrKztLW2t7i5usLDxMXGx8jJ ytLT1NXW19jZ2uHi4+Tl5ufo6erx8vP09fb3+Pn6/8QAHwEAAwEBAQEBAQEBAQAAAAAAAAECAwQF BgcICQoL/8QAtREAAgECBAQDBAcFBAQAAQJ3AAECAxEEBSExBhJBUQdhcRMiMoEIFEKRobHBCSMz UvAVYnLRChYkNOEl8RcYGRomJygpKjU2Nzg5OkNERUZHSElKU1RVVldYWVpjZGVmZ2hpanN0dXZ3 eHl6goOEhYaHiImKkpOUlZaXmJmaoqOkpaanqKmqsrO0tba3uLm6wsPExcbHyMnK0tPU1dbX2Nna 4uPk5ebn6Onq8vP09fb3+Pn6/9oADAMBAAIRAxEAPwD9/KKKKACiiigAooooAKKKKACiiigAoooo AKKKKACiiigAooooAKKKKACiiigAooooAKKKKACiiigAooooAKKKKACiiigAooooAKKKKACiiigA ooooAKKKKACiiigAooooAKKKKACiiigAooooAKKKKACiiigAoopHYqjEDcQOB60ALRX5s+OP+Dim 18D/ALTfif4Qv+z78VNQ8eeE5HF7p1j5czNECAJ4/l+eJgVZWHBDCtT/AIf0eIP+jUPjx/4BL/8A E0AfolRXxT+zJ/wV+1r9ov46+HvBdz+zt8XvBsGvTPE+s6vaqllY7Ynk3SHHAOzaPdhX2tQAUUUU AFFFFABRRRQAUUUUAFFFFABRRRQAUUUUAFFFFABRRRQAUUUUAFFY/j/xxpvwy8Dax4i1i4js9K0O zlvruZzhY4o0Lsc/QGvzy8I/8HEi/EvQ49a8J/s2/GjxN4dvHf7Dqljaq1vfRqxUSIdvKnGRQB+k tFfEP7Ov/BYrWvj38a/D/g+4/Zx+MHhOHXbgwPq+qWqrZ2ICM26Q44Hy4+pFfb1ABRRRQAUUUUAF FFFABRRRQAUUUUAFFFFABRRRQAUUUUAFFFFABRRRQAUUUUAFFFFABRRRQAUUUUAFFFFAHxD/AMFZ /wDgn94j+KF/oXx9+CLJo/7QXwrjM1gyMY4/FVgPml0y4A+/uAOwnODx/dK+uf8ABNr/AIKA+G/+ Ch/7PVv4p0uM6T4l0qT+zvFHh64YC88P6gmRJDKnVQSCVJ4YDgnBr6Cr81f+CjH7OHi7/gnl+0v/ AMNgfAvR5dQtmURfFXwjaZVfEWnAgveRoOPtEQG7cBk7cnOMUAfpVRXE/s5/tDeE/wBqz4K+H/H/ AII1a31jw34ltEu7S4iYEgEco4/hdTlWU9CDXbUAFFFFABRRRQAUUUUAFFFFABRRRQAUUUUAFFFF ABRRRQAUUUUAFFFNllWCJnkZURRlmY4Cj1JoA/Pr/gvP8V9Y+IXhf4c/sv8Agmaf/hMf2gtYSy1B rfl9O0OBg93M5zmMNgKrH5SVYd6+4Pgv8JtH+BHwm8O+DdBt47XR/DOnw6faxogQBI1C5wOMkgk+ 5Nfn5/wSrtpP+Cgv/BQf4z/tbakn2jwrp91J8PfhmXj+X+zLRytxdxk9VnmBb2YMOlfpVQAUUUUA FFFFABRRRQAUUUUAFFFFABRRRQAUUUUAFFFFABRRRQAUUUUAFFFFABRRRQAUUUUAFFFFABRRRQAU UUUAFR3tlDqNpLb3Ecc0EylJI3XcrqeCCO4NSUUAflT4y0vVP+Dez9rGTxRpcc15+x/8YtYzrVoM kfDTWZj/AK9B0Wymxk4ACHOdu0GT9S9C1yz8T6Laalp9zDeWN/ClxbzxMGjmjYAqykdQQQaxPjJ8 HvDf7QHwt1zwX4u0m01zw34jtHsr+yuUDxzRt/Ig4II5BAIwQK/Ov9iP4teIv+CQn7Udr+y/8VtU mvPhN4omZvhT4rvnO2DLZGkzyHgMucISR07UAfp1X44/s0f8E69N/wCClf7dH7YmoeOPix8eNBTw P8UJtG0my8L+Np9Ns4LdoVk2+UVcDDHjbgAdq/XzS/Gej634g1LSbPVdNvNU0fy/t9nDcpJPY+YC 0fmoDuTcASNwGQMivyY/YJ/4KVfAr9hz9ur9t7R/iz8SvD/gfU9c+Lk15Y2+oebuuYVt1QuuxGGA wxzQBw3/AAWh/wCCPXhz9gT/AIJn/Ez4ueBfjZ+0xN4q8IppzWKap8Q57i0Pn6naWr70VELfu53x hhg4POMH9nPAUrT+BdFkkZnd7CBmZjksTGuSTX5D/wDBwB/wWM/Zj/aj/wCCRfxe8B/D/wCMXhXx R4u16PShp+l2fneddGLV7GaTbujA+WON2OT0U1+u3w8/5EDQ/wDsH2//AKLWgD81/wDgsp8I5/2p P+CtX7G3whvvG3xC8H+EvHGm+MZNWPhLXpdJurg2lhFcwneuVOJIgPmU/KzAYzmuw/4ht/hf/wBF w/aw/wDDly//ABmuM/4K8ftDeCv2VP8Agtn+w348+IfiKx8K+EdF0vxwL7VLzd5NsZdMjhj3bQT8 0kiKMDqwr3v/AIiC/wBjH/o4LwP/AOTH/wAaoA85/wCDafUtWn/Yf8fafq3iDxF4mbw78VfEWjWl 7reoSX14ba3eGONWlkJJwBnjAyTgDNfodX5s/wDBs9480XU/2CPip4ni1OzHh64+LninU01CSQR2 /wBlZ4ZBMWbAVNh3ZOMDriv0c0TW7PxLo9rqGnXdtf6ffRLPbXNvKJYZ42GVdGUkMpBBBBwRQBao rN8QeMdI8JzWEeqapp2myapcrZWSXVykLXk7fdijDEb3PZVyT6VpUAFfiv8A8E6v+Caelf8ABTH4 gftTeLvH3xe/aC0m+8LfHnxT4Y0608OeOp7CygsoZIZY0ERV8FTO4G0gBQoAGOf2W0XxjpHiPU9R stP1TTr680eUQ38FvcpLJZSEZCSqpJRiOcNg1+P/APwSC/4Kh/AD9iPxR+114X+K3xQ8O+CPEGpf tFeLdUtrLUPN8ya1Z7eJZRsRhtLxSL1zlDQBzH/BY7/gk/of/BOn9jhfid4C+NH7SF14isPFGi2C Raz8QJ7qzeK4vY45A0aohPyk4+b86/bmvxj/AOC+f/BXD9m/9rv9gBvBPw1+Lnhjxd4qvPF+g3EO m2XnedJHFfxvIw3IBhVBJ5r9nKAPyy/4KlfAiT9sT/gt38BfhHq3jv4leD/COtfDvWdUvE8I+Ipd Immnt5maNiVyp9DlSccZFd7/AMQ2/wAL/wDouH7WH/hy5f8A4zXB/wDBSH9p/wAA/shf8HA/7O/j T4leKNP8H+FbX4Y67ay6je7vJSWWZljU7QTljwOK+hP+Igv9jH/o4LwP/wCTH/xqgDh/+DZbxbrX jT/gk74bu9f1zWvEWoR+I9dtje6reyXl1IkeozIgaSQljhQAOeK/QCvzf/4NhvFul6L/AMEa9D1q +1CzsdJi8SeIbiS8uZlhgjjOpTnezsQFGCOTiv0asL+DVbGG6tZori2uI1lilicOkqMMqykcEEEE EdRQBNXw9/wXp/am1z4M/sfQ/DnwFNu+K3x81OHwB4UgSQpKkt6fKlnyvKCOJnIfoG2c8ivs/W/G ej+GtS0+z1LVdN0+81aRobGC4uUikvXUZKxqxBcgckLnAr85f2X9/wDwUq/4LT+Mvi9cB7r4a/s0 2svhLwgS263u9auFK3lynZtkeUOfusFIoA+3f2L/ANl7Q/2L/wBlnwN8L/Dse3TfBukwaeJCMNdS qo82dv8AbkkLu3u5r8nv+CUX/BLLRf8AgpB8HPiF8Q/Hvxk/aLsNah+JXiHRYoNC8ez2dnFb29yP LCxsj4IDkcHGAOBX7PeH/GOkeLZtQj0vVNO1KTSbprK9W1uEmNncLjdFJtJ2SLkZU4Iz0r8e/wDg h7/wVf8A2df2N/2b/iR4N+J3xY8M+DfE4+KviW+On33neb5Ml0oR/lQjB2t37UAZP/BUT/gl3o// AATa8HfB3x74B+MX7RGpatqXxb8N6Bc22v8Ajye9sprW4ndpFaNUTJPlKOSRgkEHNftZX42/8Fq/ +Cq/7PH7Z3wn+CfhD4XfFbw3408Sx/GnwtqDafYeb5q28c8qvJ8yKMAyIOv8Qr9kqAPyl/4KAfs2 f8Ny/wDBwZ4T+E+vfED4p+EfB8fwIPiQweD/ABNLpDSXkeuXMKu20MhykhBO3J2rzgYrtvHX/Buh 8NfDngjWNQt/jh+1YbiwsZ7iIP8AEqUruSNmGR5XTIrjf2yf2uPhv+xd/wAHLXhLxd8UvF2l+C/D dx+zu2mx39/v8p7iTxBcOkfyqxyVjc9P4TXuvxH/AOC/f7HGrfDzXrW2+P3gma4utOuIokX7Rl3a JgAP3XckUASf8G43jTWPiH/wRc+COseINW1LXNXvbXVDcX2oXT3VzOV1i+Vd8jks2FVQMngADoK+ 3a+AP+Db7xXpfgf/AIINfBDVda1Kw0jS7O01Uz3d7cJBBCDrd8o3OxCjLEAZPJIFffsMyXMKyRss kcgDKynIYHoQaAHUVm6n4z0fRfEGm6Tearp1rquseZ9gs5rlEuL3y13SeUhO59q8naDgcmtKgAr8 R/8AgjD/AMEkNA/4KGfsAeG/ir48+NX7Slv4m17VNXguY9I+IM9taKtvqNxbx7EZHI+SNc/McnPT pX7TeGfGOkeNbW4m0fVNO1aG1uHtJ5LO5SdYZkxvjYqSA65GVPIzzX48/wDBv9/wV8/Zp/ZO/wCC YPg/wN8Rvi94X8J+LdK1fW5LvTL3zvOgWXVLqWMnahHzI6sOehoAd+2j/wAE2dK/4Jp/tI/sieIv Avxc+P2tTeMPjl4f8OapZ+JfHE+o2VxZyPJK6GIKgOTEoO7IKkjHNfstX4//APBTP/gp38A/23v2 hP2LPDvwn+J3h3xxrmlftBeG9Su7PT/N8yC3BljMh3ooxvkQderCv2AoA/JX9oT9kiH/AIKD/wDB wF8S/h74o+JHxe8KeFvDPwt0nXLO08IeKptJX7S1yImLKAyEFXOcKCSBzXQftQf8G/vw/wDg/wDs 0fETxbpPxu/aobVPC3hnUtXsxcfEiZ4TNb2ssse9RECV3IMgEZGeRWP4+/bZ+FX7D3/ByH8Wte+L HjbSPA+kax8INHsLK61DfsuJ/tYfyxsVjnarHn0r1T9sX/gu7+yH4/8A2RvipoOj/HfwbqGr614Q 1awsbWP7RvuZ5bKZI41zHjLMwAz60Aey/wDBEDxRqfjX/gkp8A9W1nUb7VtUvvCdvLc3l7cPcXFw 5LZZ3clmPuSTX1TXxr/wRF8Y6R4D/wCCLn7Pepa5qmnaPp8fhK0Rrm+uUt4VZnYKCzkDJJAAzyTX 2VQAUUUUAFFYvxG+ImjfCXwJq3ibxFfwaXoeh2z3l7dzNtjgiQZZia+NIP8Ag4x/ZRuoVki8e30k cg3Ky6RcMrD1B20AfctFfMP7Lv8AwWC+A/7Y3xYh8E+AfFF3qviG4t5LpIJNOmgUxx43HcwA4yK+ nqACiiigAooooAKKKKACiiigAooooAKKKKACvFP2+v2GvCP/AAUD/Z21XwF4qh8tpv8ASdK1KIYu dHvU5iuYmHIZWwfccHNdf+03qPxI0n4F+ILj4R6f4V1X4jRxIdFtPEkssOlzSeagcTtEQ4Aj8wja fvBe1fFf/CzP+Con/RNf2P8A/wAHWsf/ABdAHzZ/wb3eMfE3wK/4K0ftefCz45+KtLvvjNqFv4Xg hkWQA6/b6dZTxLcJ/eY2s9k7D72ZCSAQQP1n8Q/stfDHxdrd1qerfDnwHqmpX0hluLu70C0mnuHP VndoyzMfUnNfzt6j+xX+2H+2t/wVl/aM8TeH9D+Dvh34/fDPWfCutapq2n6xewRaFI2lyLbw6czh /NjuIEHnpMpBZFAwpIP21+xf/wAFTP8AgoL+2ZL4o0Xw38P/ANlu08UeAb06Vr2j+IL7VbHVbaVO PNeFZSNj4yGXg57dKAP0+/4Y3+EP/RK/hv8A+EzZf/G69GijWCNURVVFG1VUYCgdABX54/8ACzP+ Con/AETX9j//AMHWsf8AxdH/AAsz/gqJ/wBE1/Y//wDB1rH/AMXQB91fED4L+DvizJav4q8J+GfE z2IZbZtV0uC9NuGxuCGRW252rnGM4HpXO/8ADG/wh/6JX8N//CZsv/jdfG//AAsz/gqJ/wBE1/Y/ /wDB1rH/AMXR/wALM/4Kif8ARNf2P/8Awdax/wDF0Ae4f8FPfh54f+GX/BI/9pTTfDeh6P4e03/h WfiWb7JpllHaQbzpc+W2RgLuOBk4ycCtD/gjx/yih/Zt/wCya6B/6b4a+HP+CiPxC/4KM337Anxs h8d/D/8AZZsfBM3gXWk1+40jVtVk1CCwNjMLh7dXfYZhFvKBuCwGeKh/4JwfEH/gotYf8E/vgpD4 B+H/AOy3feB4fBOkJoFxrOrarHqE9iLOIQPcLG4QSmPaWC8Bs44oA9p/4Lw/8lk/YW/7OK8Pfylr 9EK/Cj/grD44/bu1L4lfsqN8TPBP7Oem6hbfGbR5fBy6DqepSRXetASeRFeGRiVtT825kw44xX2P /wALM/4Kif8ARNf2P/8Awdax/wDF0AH/AAR0/wCUi3/BQL/spWn/APpE9faGrfsm/CvX9Vur6++G fw/vb69lae4uJ/DtnJLPIxLM7s0ZLMxJJJOSTmvxo/4Ju+OP27rD9sz9r2XwD4J/ZzvvFl143s38 bQazqepR2VnffZW8tLFo2DNEUySZMnNfY/8Awsz/AIKif9E1/Y//APB1rH/xdAH2VD+x98I7aZZI /hb8OY5I2DKy+GrIMpHQg+X1r0avzv8A+Fmf8FRP+ia/sf8A/g61j/4uj/hZn/BUT/omv7H/AP4O tY/+LoA+5vH/AMDfBPxXvbe58U+D/C3iS4tUMUEuq6VBePChOSqmRGKjPOBxmsH/AIY3+EP/AESv 4b/+EzZf/G6+N/8AhZn/AAVE/wCia/sf/wDg61j/AOLo/wCFmf8ABUT/AKJr+x//AODrWP8A4ugD 0T/gtn4F0T4c/wDBFf8AaC0rw9o+laDpcPhG7eOz060jtbdGZlLEIgCgknJwOTXvn7EP/Jl3wh/7 ErRv/SGGvy5/4KyePv8AgoVqX/BN74xW/wATfAf7MWm+AZfDk667c6DquqS6lDbZXc0CyOUL9MBh ivTP2XPiN/wUrt/2Zfh1H4c+Hf7J9x4ej8Maauly32sast1Jai0i8lpQr7RIU2lgOM5xQBwf/B1p 8V/E3wS8e/sk+JPBtsbzxVZ+KNag0qIdWuJ7S3t0x7gy5HuK/QD/AIJZfscQ/sM/sTeD/BMuZvEE kB1XxDdOoEt5qVx+8nd/Vgx25/2K/DX9sP8Abn/ax/au/wCCwfwS+HHibwh8DLzx18J/FM1no9jp 8t7L4Wu9WkthJLHczyOZC8aBAwTG1lH1P6gf8LM/4Kif9E1/Y/8A/B1rH/xdAB/wQP8A+Sj/ALcv /Zyvin+cNfZl7+yJ8J9RvJri4+F/w7uLi4cySyyeHLNnkYnJZiY8kknJJ61+Nn/BJPxx+3dpvjT9 qg/DHwT+znqV5cfG3XpvGC6/qepRJaa4TF9pis/LYFrVfl2M+XPOa+x/+Fmf8FRP+ia/sf8A/g61 j/4ugD7O0/8AZH+FOlX8N1a/DH4e211ayLLDNF4cs0kidTlWVhHkEEAgjkEV6FX53/8ACzP+Con/ AETX9j//AMHWsf8AxdH/AAsz/gqJ/wBE1/Y//wDB1rH/AMXQB9yePPgJ4F+KmrRah4o8F+E/El9D CLeO51TSLe8mjjBZggaRGIUMzHAOMsT3NYf/AAxv8If+iV/Df/wmbL/43Xxv/wALM/4Kif8ARNf2 P/8Awdax/wDF0f8ACzP+Con/AETX9j//AMHWsf8AxdAGh/wcfeENJ8B/8EGPjdpOh6Xp2i6VZ2ml CCysLZLe3gDa5YsdsaAKuWJJwOSSe9fcHwm/5JX4Z/7BVr/6JSvxf/4Li+Ov2+NX/wCCWXxYt/jF 4H/Zt0n4byW+n/2zd+GNT1ObVYVGp2hi8lZmMZJmEQbcPulsc4r6Z+H3xK/4KdJ4C0MWPw3/AGRZ LFdPgFu02s6uJGj8tdpbD43YxnHegDQ/4KM/8p+P+Cev/XLx9/6ZUr9F6/CP9s7xv+3Zdf8ABXL9 ju68WeCf2dLX4oWsfi7/AIQaz03U9SfR70Npii++3OzeYu2HBj8sjL9eK+zP+Fmf8FRP+ia/sf8A /g61j/4ugA/4Nt/+TX/jh/2XXxb/AOjYK+yX/Y6+EcjszfCv4cMzHJJ8NWRJP/fuvxv/AOCKXjj9 u7SfgV8Uk+Efgn9nPVdFk+K3iGTWJPEup6lDcRasZIvtUcIiYA26nbsLfMQTmvsf/hZn/BUT/omv 7H//AIOtY/8Ai6APtLQ/2U/hd4Z1m11HTfht4B0/ULGVZ7a6tvD9pDNbyKcq6OsYKsCAQQQQRXfV +d//AAsz/gqJ/wBE1/Y//wDB1rH/AMXR/wALM/4Kif8ARNf2P/8Awdax/wDF0Afb/jb9nf4f/EvX DqniTwL4O8QakyLEbvUtFtrucov3V3yIWwMnAzxWR/wxv8If+iV/Df8A8Jmy/wDjdfG//CzP+Con /RNf2P8A/wAHWsf/ABdH/CzP+Con/RNf2P8A/wAHWsf/ABdAFP8A4OafDeneD/8Agjrq2l6TYWWl 6bZeJ/DsVvaWkCwQQINTgwqIoCqPYDFfo5X4U/8ABd7xx+3drH/BPLWIPjR4J/Zz0fwKdf0Zp7nw tqepTaitwL6I24VZmKbDLtDE8hScc19jf8LM/wCCon/RNf2P/wDwdax/8XQB+iFFfMn7Cfiv9rnx D4y1yP8AaM8K/BHw/oMdkjaTL4Iv764uZbneNyzC4YgJsyQV5zXsP7TX7Q3hz9k74A+LPiN4su47 Pw/4R06TULp2YKZNowka5/jkcqijuzigD4b/AOCxHjbUv20v2jvhz+xr4NvpIG8YSp4i+IF3bvk6 bokDBjC+Ohm4+U4yp4r7g8KfssfDfwX4Y07R9P8AAvhKGw0q2jtLdG0mBiscahVBJTJOAOTya+QP +CGf7O/iLVfDfjT9pj4mW0sfxO+P94dTMU6kNpGkBs2lmgPKoF2ttPQnA4r79oA5/wAPfCXwr4R1 JbzSfDPh/S7xVKie006GGQA9RuVQcGugoooAKKKKACiiigAooooAKKKKACiiigDz79rTxRqHgj9l X4ma1pN1LY6ppHhTVL2zuYjh7eaOzleN191ZQR9K/Mj/AIJ1/sO/tLftvfsR/Df4sah+3V8ZtAvP HWkLqcun2+l2c0doxdl2K7EFh8vUgda/Sj9t7/ky74vf9iVrP/pDNXyR/wAEMv2xvhD4C/4JH/Af R9c+Knw30XVtP8MRxXVjfeJbK3ubZ/MkO143kDKeehANAHz1+318Bf2kP+Cadr8G/GY/bK+LXxCs /E3xV8PeEr/RtSsLW1t57a7mdpcshYnKw7cY5Dnmv2Mr8t/+C+/7T3w1+MXwd/Z90nwj8Q/A3irV I/j14SuGs9I161vrhYlkuAzlInZtoLKCcYBYetfqRQB+dH/BM/8A5Tt/8FE/+uvgL/0z3FaP/BU7 9jPxl8JfirY/tXfs/wBnj4neD4gPE+hQLiPxnpa8yRuo+9MqglTjJxWd/wAEz/8AlO3/AMFE/wDr r4C/9M9xX3n8ZLubT/hD4quLeWSGeHR7uSOSNirxsIXIYEcgg85FAHDfsO/to+DP2+v2ctD+JHge +W403VFMV3bN8txpd2mBLbTJ1WRG7HqCpHBBr12v5UfgT+yt8Svgb+xD8Lf2kdI+Nfx+0f4b/Ea9 ubv4qW3g3xVcafqdjKb24t11NCmVnUbVaTzVZ8ljvw+U/Sr4d/8ABKGT4r+CNL8SeHf23v2z9W0X WbdLuzu4PidI0c8bjKkHyvQ0AfsJRX5K/wDDl/Xv+jzv22P/AA5kn/xqtX/gi1oXjL4H/wDBVX9p T4S618X/AIufFTw34R8MeHr3TJPHPiafWJ7eW5VpZSu8hFJLYyqgkKAc4oA+zf8Agrr/AMoqf2lP +yX+JP8A02XFV/8Agjx/yih/Zt/7JroH/pvhqx/wV1/5RU/tKf8AZL/En/psuKr/APBHj/lFD+zb /wBk10D/ANN8NAHz/wD8F4f+SyfsLf8AZxXh7+UtfohX53/8F4f+SyfsLf8AZxXh7+UtfohQB+d/ /BHT/lIt/wAFAv8AspWn/wDpE9fohX53/wDBHT/lIt/wUC/7KVp//pE9fYX7a+u33hf9jT4uanpl 5dadqWneC9YurS7tZWhntZUsZmSRHUhldWAIYEEEAigD06ivw1/4J/8A/BOXxr+1l+xf8OPiRr37 YX7Y2n6x4y0aLUru3sPiTOttDIxORGHRmC8d2J969g/4cv69/wBHnftsf+HMk/8AjVAH61UV+Sv/ AA5f17/o879tj/w5kn/xquw/4IJW/jD4c/tj/tifDHxD8U/ih8UtH+HWpeFrfRrvxv4hm1i8tlub G7nl2s52puZgDsVciNM5IzQB9Bf8F5f+UOv7Q3/Yn3P80pvjT9sbSf2B/wDgjBoHxV1ZoW/4Rb4b aVJYwSHAvb57GCO1g/7aTvGvHQMTTv8AgvL/AModf2hv+xPuf5pXxxr27/gpZ+0n+yP+zbZyST/D 34P+DtC+JvxF8twYbqaCyhGnWEg6MGmIMkbcFGDDlQQAeVfDv9j/AFb9lX4tf8E6dQ8YLJL8TPid 8Sdc8YeL7mY7p5L67sIpPLc9zGpVOOPlr91K/O3/AIK8RLD/AMFL/wDgnuiqFVfH+sKAOwFhFX6J UAfnf/wQP/5KP+3L/wBnK+Kf5w1+iFfnf/wQP/5KP+3L/wBnK+Kf5w19Ff8ABWrxlq/w8/4JhfH7 XvD+q6loeuaP4C1i7sNQ0+5e1urKZLSRklilQh0dWAIZSCCMigD6Gor8Vf2T/wDglv4t+PX7LXw1 8dap+2N+2ba6p408K6Xrt5Ba/EqZbeGa6tIp3WMMjMEDOQAzE4AySea9A/4cv69/0ed+2x/4cyT/ AONUAfrVRX5K/wDDl/Xv+jzv22P/AA5kn/xqu8/4N49R8XaL45/as8DeKPiR8RfiZafDv4hRaJpG oeMdem1e+it1ticb5DhcnkhAoJ5xQB33/BzT/wAoOfjv/wBeuk/+nqwr7Q+E3/JK/DP/AGCrX/0S lfF//BzT/wAoOfjv/wBeuk/+nqwr7Q+E3/JK/DP/AGCrX/0SlAHwR/wUZ/5T8f8ABPX/AK5ePv8A 0ypX6L1+dH/BRn/lPx/wT1/65ePv/TKlfovQB+d//Btv/wAmv/HD/suvi3/0bBX6IV+d/wDwbb/8 mv8Axw/7Lr4t/wDRsFewf8FzviDr3wq/4JKfHPxF4X1zWPDfiDSvD3nWWp6XeSWd5Zv58Q3RyxlX RsEjKkHBNAH1hRX43/BX/gkp4n+JPwc8JeIrz9sn9tGG81/RrPUp44fiXKI45JoEkYKDGTtBYgZJ OO5rpv8Ahy/r3/R537bH/hzJP/jVAH61UV+Sv/Dl/Xv+jzv22P8Aw5kn/wAar0r/AINtPFXi7U/h F+0Z4d8XePvHXxGf4f8Axs1zwtpmqeLNam1bUBZWkNpHGhllJxnDOVUKu52IUZoA0P8Ag6L/AOUS PiD/ALGrw7/6c4K/RCvzv/4Oi/8AlEj4g/7Grw7/AOnOCv0QoA/NL/gqLqPxf+M3/BW34E/A74e/ HDxl8GdC8Y+C9Z1jUbrQYYp2mmtXLISkmAcgbc5GBXzp+19/wRy/ai/aQ/aj8H/AbXf2kfjP48+D OuaVP4h8V+JdZ0eCPTLGW3kQWttFsO2W4MjBzG7D5RuGdpx9HftwfEnw78KP+Dif9mPWvFOv6L4a 0eH4b+JI5L7Vb6KztkZiwUGSRlUEngAnk19pf8N6fAz/AKLR8J//AArtP/8AjtAHmv8AwSP0/wAV eFP2Zte8KeL/ABtq/wAQtU8B+Ntd8MRa7qcSRXN3b2d40MO5E+VcIoAAzivqKvmn/gl94o0zxt8M /ifq2jajY6tpWofFbxVPa3tlOtxb3MbajIQ6SISrKexBINfS1ABRRRQAUUUUAFFFFABRRRQAUUUU AFFFFAFHxR4Z0/xr4Z1HRtWtYb7S9WtZbK8tpRmO4hkQo6MPRlYg+xr5V/4cNfsdf9G8/Df/AMAD /wDFV9IfG34kD4N/Bjxd4vNn/aA8K6LeawbQS+T9q+zwPN5e/Dbd2zG7acZzg9K/Oz4G/wDBbP8A ar/aU+Emg+O/BH7AGt694T8TWovNM1CP4taZEt3CSQGCyWquOQeGUGgD6T8J/wDBET9kvwL4p03W 9H+Anw90/VtHu4r6yuobEiS2nicPHIp3cMrKCPcV9UV+ZPxB/wCC437RH7P3iDwKfix+xDq3w78M +N/Fmm+EItan+KFhfrb3N7LsT91Bas7YVZGx8oOzG4ZFfptQB+dH/BM//lO3/wAFE/8Arr4C/wDT PcV93/G//ki3i/8A7Al7/wCiHr4Q/wCCZ/8Aynb/AOCif/XXwF/6Z7ivu/43/wDJFvF//YEvf/RD 0AfmR/wQf8M6f40/4ItfCTSNWs7fUNM1PStStrq2nQPHPE+pXisrA9QQSK5j9ln4e+Pf+CY/7Y8f wjstN17xZ8BfiJNLeeFrqCB7hvB0/wB6S2mIHywc5DHgAg8V23/Bvz/yh9+C3/Xjf/8Apzu6+yKA CvlH/gm//wAp+P2uv+xN8J/+iK+rq+Uf+Cb/APyn4/a6/wCxN8J/+iKAPq7/AIK6/wDKKn9pT/sl /iT/ANNlxVf/AII8f8oof2bf+ya6B/6b4asf8Fdf+UVP7Sn/AGS/xJ/6bLiq/wDwR4/5RQ/s2/8A ZNdA/wDTfDQB8/8A/BeH/ksn7C3/AGcV4e/lLX6IV+d//BeH/ksn7C3/AGcV4e/lLX6IUAfnf/wR 0/5SLf8ABQL/ALKVp/8A6RPX1x+3p/yYz8aP+xE1z/03z18j/wDBHT/lIt/wUC/7KVp//pE9fXH7 en/JjPxo/wCxE1z/ANN89AHxh/wRa/5RVfAv/sVrf+bV9P18wf8ABFr/AJRVfAv/ALFa3/m1fT9A BXzD/wAEcP8AlKz/AMFAP+wx4M/9NNzX09XzD/wRw/5Ss/8ABQD/ALDHgz/003NAHt3/AAXl/wCU Ov7Q3/Yn3P8ANK8f/wCDar9jvWvgT+w/H8SPHMcknxE+MC2uo3s1xHtni0+3gWCxhOeQBEu4eodT XsH/AAXl/wCUOv7Q3/Yn3P8ANK9o/Yh/5Mu+EP8A2JWjf+kMNAHx/wD8Fff+Umf/AAT5/wCygax/ 6QRV+iFfnf8A8Fff+Umf/BPn/soGsf8ApBFX6IUAfnf/AMED/wDko/7cv/Zyvin+cNe8f8Fmv+UT H7SH/ZOtb/8ASOWvB/8Aggf/AMlH/bl/7OV8U/zhr3j/AILNf8omP2kP+yda3/6Ry0AeT/8ABN7/ AJR3/AX/ALJ14e/9NlvXtFeL/wDBN7/lHf8AAX/snXh7/wBNlvXtFABXzB/wQZ/5On/bn/7Kyv8A 6TGvp+vmD/ggz/ydP+3P/wBlZX/0mNAHb/8ABzT/AMoOfjv/ANeuk/8Ap6sK+0PhN/ySvwz/ANgq 1/8ARKV8X/8ABzT/AMoOfjv/ANeuk/8Ap6sK+0PhN/ySvwz/ANgq1/8ARKUAfBH/AAUZ/wCU/H/B PX/rl4+/9MqV+i9fnR/wUZ/5T8f8E9f+uXj7/wBMqV+i9AH53/8ABtv/AMmv/HD/ALLr4t/9GwV6 R/wcF/8AKGT9oL/sWv8A24hrzf8A4Nt/+TX/AI4f9l18W/8Ao2CvSP8Ag4L/AOUMn7QX/Ytf+3EN ADv2Uv8Ak1z4a/8AYq6X/wCkkVd9XA/spf8AJrnw1/7FXS//AEkirvqACvmD/g2//wCQV+2J/wBn H+Kv5WtfT9fMH/Bt/wD8gr9sT/s4/wAVfytaANf/AIOi/wDlEj4g/wCxq8O/+nOCv0Qr87/+Dov/ AJRI+IP+xq8O/wDpzgr9EKAPF/2oP+Cd3wQ/bU17S9U+K3wz8L+OtQ0W3a1sZ9VtzK9rEzbmRTkY BbmvL/8Ahw1+x1/0bz8N/wDwAP8A8VWD/wAFEf8Agqr48/ZD/ay+Hvwc+GnwDvPjh4u+IOh3mu29 vb+LoNBa3jtXxIP30Do2Fy2S6nsAa4X/AIeh/tqf9I6fEH/h39I/+R6APtr9nz9m/wAC/spfDS38 G/DnwvpPg/wvZzS3EOm6dH5cEckjbpGAyeWY5NdtXh//AAT9/aw8RftjfAa48UeLfh7N8LfE+ma7 qPh/VPDcusR6s+n3FnOYXBuI40R8kZ+VcD1PWvcKACiiigAooooAKKKKACiiigAooooAKKKKAPL/ ANt7/ky74vf9iVrP/pDNXh//AAQH/wCUNv7Pf/Yqxf8Ao2Svpj42/DcfGT4MeLvCBvP7PHirRbzR zdiLzvsv2iB4fM2ZXdt3527hnGMjrX52fA3/AIImftV/s1/CTQfAngj9v/W9B8J+GbUWemafH8Jd MlW0hBJChpLpnPJPLMTQB1f/AAcff8m+/s9/9nAeEP8A0O5r9EK/Mn4g/wDBDn9of9oHxB4FHxY/ be1b4ieGfBHi3TfF8Wiz/DCwsFuLmyl3p+9guldcq0i5+YDfnacCv02oA/Oj/gmf/wAp2/8Agon/ ANdfAX/pnuK++/idodx4o+GviHTbNVa71DTLm2hVm2hneJlUE9uSOa+BP+CZ/wDynb/4KJ/9dfAX /pnuK/RegD8Xf2HP2e/+ChX7Dv7K3hH4V6V8A/hLrmn+EYZ4Yb678cxxzXAluJZyWVWwMGUjjsBX q/8AwlX/AAUa/wCjbfgx/wCF8v8AjX6l0UAflp/wlX/BRr/o234Mf+F8v+Ndf/wSS/ZJ/aI8Eft/ fHL40/HbwT4V8EN8R9A0bTLGz0TXI9TjD2QZGyQSy5Xaee5OK/RyigD53/4K6/8AKKn9pT/sl/iT /wBNlxVf/gjx/wAoof2bf+ya6B/6b4a/KXWbL9qz9vD/AIJrftY/FTVf2tNX0nwT4LuPG2h3HgX/ AIQXTbiPVdO0+CVmtjeho5IxLExi3BGZB82WNe4/8E4P+CdP7W/j7/gn98FNc8Lft3a34J8N6v4I 0i80vw/H8LdLvk0W2ks4mitRO84eURqQm9gC23JAJoA9p/4Lw/8AJZP2Fv8As4rw9/KWv0Qr8KP+ CsP7CX7Tnwz+JX7Klv4y/bM1f4hXXiX4zaPpPh+5l+HOnacfCuoyCTytTVY5mFw0WD+5fCtnkivs f/h15+2p/wBJFvEH/hoNI/8AkigA/wCCOn/KRb/goF/2UrT/AP0ievtL9qzwBqXxX/Ze+JPhbRo4 5tY8S+FtT0qxjkkEaPPPaSxRgseFBZhkngV+M3/BN39hL9pzx/8Atmfte6T4W/bM1fwTrvhbxvZ2 fiTWY/hzp183i+5a1ZlumheYLbFVyuyMsDnOa+4f+CAn7QHxU+OHwh+PGl/Fz4gXXxL8Q/DD4x65 4GtNbuNNttOa4tLGGzVT5MChV3O0r4JYjzMbiAKAPmX9kf4P/wDBQ79kj9mrwZ8NdN/Z/wDhFq9j 4M01NNhvbnx1HHNcqufmZVbAPPavRf8AhKv+CjX/AEbb8GP/AAvl/wAa/UuigD8tP+Eq/wCCjX/R tvwY/wDC+X/GvR/+CLv7Jnx2+DP7Rn7THxM+OnhHw34N1T4yXvh+6sLDRtZTUoUFja3NvJ8ykleG iPzdSxx0r9BKKAPkf/gvL/yh1/aG/wCxPuf5pXtH7EP/ACZd8If+xK0b/wBIYa/DXxZZftWftx/8 ENfi18dvF/7Wmr3HhFbbWra/8Bv4F00x6hb2l40HlG+QpIgcKDkR5Xpz1r7Q/Zc/4Jq/tieI/wBm X4dahpH/AAUA13QdJv8AwxptxZaYvwn0m4XToHtYmjgEjThnCKQu4gFtuT1oA7r/AIK+/wDKTP8A 4J8/9lA1j/0gir9EK/Cj/gox+wl+054D/bi/Y/0fxR+2Zq/jTxB4q8X6la+G9ck+HOnWTeELhLRG kuVhSYrcl1ITZIVAxkGvsf8A4deftqf9JFvEH/hoNI/+SKAD/ggf/wAlH/bl/wCzlfFP84a+pv8A gpB8E9f/AGkv2AvjL8P/AArbwXXiXxn4O1PRtLhmmWGOW5ntnjjVnbhQWYcngV+SX/BJP9hL9pz4 neNP2qIfBf7Zmr/Du48N/G3XtH8QTRfDnTtR/wCEq1OIxedqjCSZRbtNkZhTKLt4JzX3p/wb/ftF /Ej9pX9irxHqfxU8ZXHjzxT4f8f634c/tiexgsmuILSSOOP91Cqov8Rxyfmxk4oA+avgD4O/4KJf AH4EeCfAln+zz8H9QtPBOg2OgwXU3jtFkuUtbeOBZGAbAZhGCQOMmut/4Sr/AIKNf9G2/Bj/AML5 f8a/UuigD8tP+Eq/4KNf9G2/Bj/wvl/xr1P/AIIffsifGj9nHXf2g/Ffxs8M6D4T174ueMo/EdtY aTqyajBEnkFHAdSSMNwN3Jr74rG+Iupz6L8PtdvLWQw3Npp1xNE4AOx1jYqcHjggdaAPij/g5p/5 Qc/Hf/r10n/09WFfaHwm/wCSV+Gf+wVa/wDolK/nm/aM0D9qb9rX/g3L1v8AaK+In7WGreJPCXiO yim1H4fy+BdNhjuRF4gSyRTfxMkgxJGk+ViHK7OmTX6JfD7/AIJjftnX3gLQ5rX/AIKG69Z282nw PFbj4R6Q4gQxqQm43GTgYGT1xQBof8FGf+U/H/BPX/rl4+/9MqV+i9fhH+2b+wp+014T/wCCuX7H fhfXv2ytX8TeNPFUfi4+GvFz/DrTrWTweINMWS5C2qzGO5+0xkRnzGXy8bhk8V9mf8OvP21P+ki3 iD/w0Gkf/JFAB/wbb/8AJr/xw/7Lr4t/9GwV9Cf8FcP2cfFP7Xf/AATe+Lnw18E2treeKvF2i/Yt NguLhbeKSXzo3w0jfKowp5Nflp/wRS/YS/ac+LnwK+KV54C/bM1f4X6fpvxW8Q6ZqFjD8OdO1Qap fxSRCfUC8symMzEqTEoKpt4JzX6D/wDBv9+0r49/a3/4Jd+CfHHxM8STeLPGGoalrFteapLbQ273 CwalcwR5SFEQYjjUcL25yeaAPmn4Z2f/AAUW+Gnw48P+G4P2dPg5dQ+H9NttNjmk8eKGlWGJYwxA bAJC549a2/8AhKv+CjX/AEbb8GP/AAvl/wAa/UuigD8tP+Eq/wCCjX/RtvwY/wDC+X/GvYP+CD37 Hvxa/ZI+FHxqn+Mmg6N4b8U/FD4par45jsdM1NNQt4IbyG2JUSKT92RJFAPOFB71910UAfnf/wAH Rf8AyiR8Qf8AY1eHf/TnBX6IV+d//B0X/wAokfEH/Y1eHf8A05wV+iFAH53/ALUP/KyX+y9/2TXx P/7NX6IV8U/8FEf+CVfjz9rz9rL4e/GP4afHy8+B/i74faHeaFb3Fv4Rg15riO6fMh/fToi5XK4K Me4Irhf+HXn7an/SRbxB/wCGg0j/AOSKAPoj/gnL/wAip8W/+yt+LP8A04yV9EV4f/wT9/ZQ8Rfs c/Aa48L+LfiFN8UvE+p67qPiDVPEkujx6S+oXF5OZnJt45HRME4+VsH0HSvcKACiiigAooooAKKK KACiiigAooooAKKKKACiiigDg/2m/wBnLw1+1v8AAvxB8O/GC6lJ4b8TRJDerYXslncFUlSVdksZ DId0a8g8jI718V/8Qvv7K/8Az6fFD/wu9R/+OV9tftG/tGeDP2Svgrr3xE+IWtL4e8G+GYkm1LUT azXQtkeRIlPlwo8jZd0HyqeuemTXx7/xE+fsL/8ARdbf/wAJPXf/AJCoA+G/2IP+CFvwF+MH/BVz 9sr4a6zb+Om8MfCmTwkugrb+K7yC5UX2mzTz+dMr75vnQbd5O0cDivsz/iF9/ZX/AOfT4of+F3qP /wAcr5F/YZ/4Lnfsr/CD/grP+2h8SvEXxVh03wT8VpPCDeFdSPh/VZRqosdNmhusRpatLH5cjqv7 1E3Zyu4c19pf8RPn7C//AEXW3/8ACT13/wCQqAMf/iF9/ZX/AOfT4of+F3qP/wAco/4hff2V/wDn 0+KH/hd6j/8AHK2P+Inz9hf/AKLrb/8AhJ67/wDIVH/ET5+wv/0XW3/8JPXf/kKgDH/4hff2V/8A n0+KH/hd6j/8co/4hff2V/8An0+KH/hd6j/8crY/4ifP2F/+i62//hJ67/8AIVH/ABE+fsL/APRd bf8A8JPXf/kKgD8vf2Xf+CPvwZ+Iv/BHr9rD4qalD4wPiz4aap46t9FaHxHdRWqpptsz23mwBtkp 3Abi4O8cHNfYP/BOD/g3Y/Zu+Pf/AAT++CnjfxBa/ERtd8XeCNI1fUDa+M7+3gM89nFJJsjVwqLu Y4VRgDgV8mfsr/8ABX/9nT4d/wDBG39rX4Waz8Ro7Px58StU8eXHhvSzompSHUo9StmSyIlW3MUf msQMSOpX+LbX2R/wTX/4OI/2OPgL/wAE9fgj4J8WfGSHSfFHhHwPo+katZHwzrMxtLqCzijlj3x2 jI211I3IxU44JHNAHhv/AAVi/wCCFHwD/Zo+JP7Kmn+F7fx0tv8AEn4zaP4U1r7Z4rvbpmsZxJ5g iLuTFJ8oxIuGHY19jf8AEL7+yv8A8+nxQ/8AC71H/wCOV8lf8Fbf+C6f7Kv7S3xM/ZP1DwT8Vodc s/hv8adG8V+I5B4f1W3/ALN0yASebcES2qGTbuHyRhnOeFNfZv8AxE+fsL/9F1t//CT13/5CoA+I P+Cbv/BCj4B/Hz9sz9r3wn4gt/HTaR8LvG9npGhi18V3tvMsElq0jec6uGmbcB8z5IHFRf8ABGz/ AIIW/AX9q2w/aSk8XW/jp28AfHHxH4P0n7D4rvLPFhaC28kSeW48yT942ZGyzcZPFa//AATU/wCC 6f7KvwE/bS/bD8V+LfitDpPh/wCKHjiz1fwxdnw/qs39qWsdqyPIEjtWePDEDbIEb2xUP/BF/wD4 Lnfsr/sqaf8AtLx+PvirD4fbx98dfEnjDQQfD+q3P2/SrsW32e5/c2r7N/lv8j7XGOVGRQB9d/8A EL7+yv8A8+nxQ/8AC71H/wCOUf8AEL7+yv8A8+nxQ/8AC71H/wCOVsf8RPn7C/8A0XW3/wDCT13/ AOQqP+Inz9hf/outv/4Seu//ACFQBj/8Qvv7K/8Az6fFD/wu9R/+OUf8Qvv7K/8Az6fFD/wu9R/+ OVsf8RPn7C//AEXW3/8ACT13/wCQqP8AiJ8/YX/6Lrb/APhJ67/8hUAfkz8Bf+CTfwh8af8ABuj8 TPjxfQ+LD4/8Px6+1o8fiG5jsAbW/eGLdbBvLb5AM5HzHk1+in7Ln/Bth+zH8Rv2Zfh14h1K1+JT alrvhjTdRujD421CKMyzWkUj7UEmFXcxwBwBxX58/AH/AIKw/s/+C/8Ag2/+J3wJ1P4gR2vxW8QR +IF0/Qv7G1B2uDdag80H79YDAu6Mg/NIMZwcHiv0c/ZX/wCDkr9in4dfsw/Dfw/rPxsgs9Y0Hwvp mnX1ufC2tyeRPDaRRyJuWzKthlIypIOOCRQB8uf8FF/+CFHwD+A/7cP7H/g/QLfx0ui/FLxfqWl6 6LrxXe3EzQxWiSJ5MjOWhbcTlkwSOK+x/wDiF9/ZX/59Pih/4Xeo/wDxyvkr/gpB/wAF0/2Vfjv+ 3T+xz4w8KfFaHVvDnwt8Yalqnii8Hh/VYf7LtpbSOOOQpJaq8mXBGIlcjHIAr7N/4ifP2F/+i62/ /hJ67/8AIVAHxB/wST/4IUfAP9pzxp+1RaeKbfx00Pw3+NuveENG+xeK720K2FsYvKEpRx5snzHM jZZu5o/4Iif8EKPgH+17+y9408ReMrfx1JqWk/EbX9Btzp/iu9so/s1tOqRbkjcBnwTlzy3etL/g kP8A8F0/2Vf2ZfG37Vt344+K0Oh2/wASPjjr/i7w458P6rcf2jpdyYvIuMRWrmPdtPySbXGOVFH/ AAQ2/wCC6f7Kv7If7LPjbw78RPitD4d1nVviR4g160t28P6rdebZXM6NBLuhtXUblBO0kMO4FAH1 r/xC+/sr/wDPp8UP/C71H/45R/xC+/sr/wDPp8UP/C71H/45Wx/xE+fsL/8ARdbf/wAJPXf/AJCo /wCInz9hf/outv8A+Enrv/yFQBj/APEL7+yv/wA+nxQ/8LvUf/jlZHxB/wCDZL9lzQ/AWuXtvafE 3z7PT55493jnUWXcsbMMgyYIyOldf/xE+fsL/wDRdbf/AMJPXf8A5CrH+If/AAcz/sP654A1yytf jjby3V5p9xDCn/CKa4u92jZVGTZYGSR1oA/KD/h1V8Jf+IWT/ho7yfFX/Cy/sHn7/wC37n+zd3/C TfYf+PTd5WPJ7Y+983Wv1I+H3/Bsl+y5rngLQ724tPib595p8E8m3xzqKruaNWOAJMAZPSvzE/4e o/AT/iFP/wCGcf8AhPo/+Fz/ANn+R/wjn9j3+7f/AMJP9ux9o8j7N/x7fvP9bjt975a/VL4ef8HN H7D+h+ANDsrr4428V1Z6fbwTJ/wimuNsdY1VhkWWDgg9KAPjP9s7/ghb8BfhP/wVy/Y7+GGkW/jp fCvxUj8XNrqz+K7ya6Y2OmLPB5MzPvh+cndsI3Dg8V9mf8Qvv7K//Pp8UP8Awu9R/wDjlfIn7av/ AAXO/ZX+K/8AwV+/Y1+J3h/4qw6h4G+Fkfi9fFGpjw/qsY0s32lrBa5ie1EsnmSAr+6R9vVto5r7 T/4ifP2F/wDoutv/AOEnrv8A8hUAfEH/AARS/wCCFHwD/a4+BXxS1nxhb+OnvfDnxW8Q+GrM2Hiu 8skFnayRCIOsbgM+GOXPzN3qb/ghH/wQj+AX7Zn/AATW8I/EDxtb+O5PEWqanrFvOdO8WXtjb7IN SuYI8RRuFB2RrkgcnJPJq5/wRF/4Lp/sq/slfAb4q6N8QvitD4d1LxH8WfEXiTToW8P6rdfadPup ITBPmG1dV3hW+ViHGOVFTf8ABBT/AILsfsp/sa/8EzfB/gD4lfFaHw14u0vVNZuLqwbw9q10Yo59 TuZ4j5kFq8Z3RyI2AxIzg4ORQB9X/wDEL7+yv/z6fFD/AMLvUf8A45R/xC+/sr/8+nxQ/wDC71H/ AOOVsf8AET5+wv8A9F1t/wDwk9d/+QqP+Inz9hf/AKLrb/8AhJ67/wDIVAGP/wAQvv7K/wDz6fFD /wALvUf/AI5R/wAQvv7K/wDz6fFD/wALvUf/AI5Wx/xE+fsL/wDRdbf/AMJPXf8A5Co/4ifP2F/+ i62//hJ67/8AIVAHxB/wXe/4IUfAP9jL/gnlrHjrwTb+Oo9etdf0ayQ6j4rvb6Dy7i+iikzFI5Un axwcZB5FfY//ABC+/sr/APPp8UP/AAu9R/8AjlfJX/Be3/gun+yr+2X/AME6dY8DfDX4rQ+JvFV1 4g0a9isV8P6ralobe/illbfPaonyorHBbJxgAnivs3/iJ8/YX/6Lrb/+Enrv/wAhUAeu/sJ/8Ekf g/8A8E6fGWua98NofF0WoeIrJLC8Or+IrrU4zErhxtWZiFbcOo5xxX03Xzj+xR/wVr/Z7/4KKeLd a0H4N/EKPxlq3h6zW/1CBdG1Gx+zwM4RX3XUEStliBhST7Yr6OoAKKKKACiiigAooooAKKKKACii igAooooAKKKKACiiigCG+sINTtXguYYbiGQYaOVA6t35B4rN/wCFe+H/APoB6P8A+AUf+Fc3+03Z fEjUfgX4gh+EN54R0/4jSRRjRbjxPHNJpMcnmpv89YQZCvl+YBtGdxXtmviv/hBP+CpX/Q8fsX/+ C3Xf/jdAGP8A8E1vB+k3P/Bc/wD4KGW8ml6bJb20vgPyY2tkZIs6RcE7RjAyeuOtfoh/wr3w/wD9 APR//AKP/Cvw7/Yg8Kft4XP/AAVc/bKg8HeKf2aLf4m28nhL/hO7nVbLVW0e6J02Y2P9nqieau2H eJfNAy+NvFfZn/CCf8FSv+h4/Yv/APBbrv8A8boA++P+Fe+H/wDoB6P/AOAUf+FH/CvfD/8A0A9H /wDAKP8Awr4H/wCEE/4Klf8AQ8fsX/8Agt13/wCN0f8ACCf8FSv+h4/Yv/8ABbrv/wAboA++P+Fe +H/+gHo//gFH/hR/wr3w/wD9APR//AKP/Cvgf/hBP+CpX/Q8fsX/APgt13/43R/wgn/BUr/oeP2L /wDwW67/APG6APmn9ifwvpk//Bvz+3TcSadYvcW+tfE0RStboXiC2b7dpxkY7Y6V+gX/AASB8DaJ e/8ABKn9nGabR9Lmml+G2gu7vaRszk6fDkkkZJr8af2XfDn7Y0//AAR5/awuPDfiL4BQ/CmDVPHQ 8aWt/aak2t3Mq2zf2kbFlXylVkz5PmEEH72K+wf+CcHgz/go5d/8E/vgpL8P/GH7Jtp4Gk8EaQ2g Qa3Yay2pRWJs4vIW4MaFDMI9oYodu7OOKAPWP+C63g/SNP8AjF+w2tvpemwrcftD+H4pRHbIvmIR LlWwOQfQ1+hP/CvfD/8A0A9H/wDAKP8Awr8QP+CsXhT9vKx+JX7Ki/E7xV+zPfahP8ZdHj8Gt4es tVSK21siT7PJfeagLWo+beI8v0wK+x/+EE/4Klf9Dx+xf/4Ldd/+N0AZ3/BH3wdpF7/wUP8A2+45 tK02aO3+JOnrEj2yMsQ+xPwoI4H0qD/g3o8H6TqWlfth/aNL0248n9pbxfFH5lsjeWgFnhRkcAeg 4r5Q/wCCbvhT9vK8/bM/a9j+H/ir9me08W2/jezXxxLrdlqr2N1ffZW8trARoXWEJnIkw2cdqi/4 I2+FP28NQsP2kv8AhU3in9mjT44fjj4jj8V/8JLZarIZ9eAtvtcln5KHFmf3flh8OMNkdKAP3E/4 V74f/wCgHo//AIBR/wCFH/CvfD//AEA9H/8AAKP/AAr4H/4QT/gqV/0PH7F//gt13/43R/wgn/BU r/oeP2L/APwW67/8boA++P8AhXvh/wD6Aej/APgFH/hR/wAK98P/APQD0f8A8Ao/8K+B/wDhBP8A gqV/0PH7F/8A4Ldd/wDjdH/CCf8ABUr/AKHj9i//AMFuu/8AxugD47/Zd8NabL/waM/GS8bT7Fry OLxVtnMCmRcapIBhsZ4r9bv2JvAWhT/sZ/COSTRdJd38F6MzM1nGSxNjDkk4r8B/gL4f/a3l/wCD dH4mXeieIPgZH8BEj1/+1rG7tdQPieQC/cXXkuq+QMy7im48LjPNfop+y54J/wCCmE37Mvw6fw34 0/ZAh8Ov4Y01tLjv9O1truO1NpF5IlKptMgj2htvG7OOKAOp/wCCung7SLP/AIKWf8E/4odK02GO 48fawsqJbIqygWEXDADn8a/Qn/hXvh//AKAej/8AgFH/AIV+IH/BRfwp+3laftxfsfx+PvFX7M91 4yuPF+pL4Hm0Wy1VdPtbz7InnNfiRA7RGPAURZO7OeK+x/8AhBP+CpX/AEPH7F//AILdd/8AjdAG d/wQb8HaRqHxF/bgFxpWmzi3/aS8URRCS2RvLQGHCrkcAeg4o/4NsvB2kan+xV8RZLnS9NuJF+Lv ilA0tsjkKLlMDJHQelfJP/BJPwp+3lf+NP2qB8L/ABV+zPY3kPxt16PxifEVlqrx3OugxfaZLLyk JW0Py7BJhxzkUf8ABETwp+3lqP7L3jR/g74q/Zn07w2vxG19L+PxTZarJdvqYnX7U8ZhQr5BbGwH 5sZzQB+3/wDwr3w//wBAPR//AACj/wAKP+Fe+H/+gHo//gFH/hXwP/wgn/BUr/oeP2L/APwW67/8 bo/4QT/gqV/0PH7F/wD4Ldd/+N0AffH/AAr3w/8A9APR/wDwCj/wrn/it8PtBT4W+JWXQ9IVhpV0 QRZx8fuW9q+J/wDhBP8AgqV/0PH7F/8A4Ldd/wDjdZHxB8Df8FQE8Ba4b7xv+xs1iunzm4WHTtc8 wx+W24LmPG7GcZ4zQB8df8I3p/8AxBEfbvsFl9u/svP2jyF83/kcsfexnpx16V+2nwo+H2gv8LvD TNoejljpVqSTZx8/uV9q/nI/sD9rD/iFk+2/298Ef+GbPsGf7O+y3/8Awl3l/wDCTY+/t+zbvtnz df8AVcfer9SPh94G/wCCoD+AtDNj43/Y2WxbT4DbrNp2ueYI/LXaGxHjdjGccZoAT/gol4P0i2/4 L2f8E+7ePS9Njt7iLx75sS2yBJcaMhG4YwcHpnpX6If8K98P/wDQD0f/AMAo/wDCvw7/AGzvCn7e Fv8A8Fcv2O7fxd4p/ZouPilcR+Lv+EFudMstVXRbUDTFN9/aCunmtuhwIvKBw/3uK+zP+EE/4Klf 9Dx+xf8A+C3Xf/jdAGd/wbjeDtI1P9mP43Nc6Vptw0fxy8WRqZbZHKqJYMKMjoPSp/8Ag2G8HaPq v/BHTwDNdaVptzM2teIAZJbZHYgaxdgckZ4FfIX/AARS8Kft5aj8Cvik3wh8Vfsz6fosfxW8QprC eKLLVZLiTVxJF9qeAwoVFsTt8sN84Gc1N/wQj8J/t66n/wAE1vCM3wW8Vfsy6b8PW1PWBY2/iyy1 aTVFlGpXIuDI0CGPaZvMKYOdhXPOaAP25/4V74f/AOgHo/8A4BR/4Uf8K98P/wDQD0f/AMAo/wDC vgf/AIQT/gqV/wBDx+xf/wCC3Xf/AI3R/wAIJ/wVK/6Hj9i//wAFuu//ABugD74/4V74f/6Aej/+ AUf+FH/CvfD/AP0A9H/8Ao/8K+B/+EE/4Klf9Dx+xf8A+C3Xf/jdH/CCf8FSv+h4/Yv/APBbrv8A 8boAzv8Ag588HaRpX/BJnX5rXStNtph4p8PAPFbIjAHU4ARkDPNfoT/wr3w//wBAPR//AACj/wAK /EH/AILveFP28tM/4J5axN8avFX7M+peAxr+jCeDwnZarHqZuDfRfZypnQR7BLtL5Oducc19jf8A CCf8FSv+h4/Yv/8ABbrv/wAboA/QLSvDOm6FIz2On2Nm8g2s0ECxlh6EgCr1fMn7Cfh39rzRfGWu N+0f4g+BOsaC9kg0iPwHa6jDdR3O8bjMbpQpj2Zxt5z7V9N0AFFFFABRRRQAUUUUAFFFFABRRRQA UUUUAFFFFAHnX7X+v33hT9kv4o6ppl5c6fqWm+EdWurS6t5DHNbSpZyskiMOVZWAII5BANfmH/wT U/4Jg/Er9tf9hH4Y/FbX/wBtj9r7SdY8caMmpXdpp/jdvstu5d12x71ZtvyjqSa/TH9t7/ky74vf 9iVrP/pDNXw3/wAETv8Agp9+zj8Hv+CUvwN8M+LPjt8JfDfiLRfDcdvf6ZqXiqytbuykEkhKSRvI GVsEcEA80AeM/wDBRT9i/wCJ/wDwTQ0/4K+N9C/a+/ak8aN4g+LfhzwtfaV4i8ZSTWFxaXU0jShk jClsiELgkqVZgQa/ZqvyT/4Ll/t/fA39p34Yfs/+Hfhz8Xvhv461+H47eE719O0HxFa6hdJAks6t KY4nZggZ0BbGAWHrX62UAfnR/wAEz/8AlO3/AMFE/wDrr4C/9M9xX6L1+dH/AATP/wCU7f8AwUT/ AOuvgL/0z3FfeXxnuJLT4PeLJYpHilj0a8dHQ7WQiByCD2IoA6WivwR/4JT/APBLTw/+2T/wT++H PxK8YfFn9oJfEnim2upb0WHj25gtw0d7cQrsQhiPkjXuec19Cf8ADhj4c/8ARWv2lP8Aw4lx/wDE UAfrVRX5K/8ADhj4c/8ARWv2lP8Aw4lx/wDEVY/4Io/Cub9mr/grh+058L7Dxh488T+F/DfhXw5d WCeJtdm1SaCS4RpZCGfAGWYjhRwAOaAOb/bz/wCCDEP7Mn7Dn7SHizwj+0n+0RpOgtoHibxle+Dr XXorfw/qU8lrPcTQT28cYDxS7RG4PLJwTV3/AIJwf8EYfFfxc/4J/fBTxVa/tkftZeE7fxF4I0jU otE0TxeLfTdJWWzicW9vHsOyGMNtVc8KAK+8f+Cuv/KKn9pT/sl/iT/02XFV/wDgjx/yih/Zt/7J roH/AKb4aAPy4/4Kxf8ABJ3xL8DviV+ypZ3n7Vf7THjdvG/xl0fw9b3HiHxSLqXw5JMJMahYnYPK u48fI/OMnivsf/hw94y/6Pp/bQ/8Lcf/ABuj/gvD/wAlk/YW/wCzivD38pa/RCgD8KP+Cbv/AASd 8S/F39sz9r3w/a/tV/tMeEp/Afjez0241XRPFAt77xOz2rOLi/fYfNmXG0NxgEiv1I/4Jm/8E3ND /wCCZfwp8XeGNF8ZeMfHc3jbxXdeMNV1fxNPFPf3N9cwwRSszxou7cYA5ZgWLOxJNfP3/BHT/lIt /wAFAv8AspWn/wDpE9fX37ceo3Gj/sU/GC8tLia1urXwRrU0M0LmOSF1sJirKw5VgQCCOQRQB6lR X4Wf8E6P+CSfhf8Aaj/Yc+GPxC8T/Fn9oZfEHi7RItQvhZ+PrmGASsTnYhUlRx0ya9p/4cMfDn/o rX7Sn/hxLj/4igD9aqK/JX/hwx8Of+itftKf+HEuP/iK6P8A4IB+BLj4H/ttfto/DaHxV408UeHf A+p+FIdJbxJrMup3Nus9hdzyfO/A3O38IGQq5zigDxD/AIKNf8EF4f2H/wDgl38ZtS8I/tJ/tEN4 V8P6Ne6v/wAIXLr0Ufh69eSXzJI5baONVZHZiWHUnk17Z+y5/wAEQ/F3jT9mX4daxD+2t+2BosWr eGNNvU0+w8ZiO1sVktInEMS+X8saZ2qOwAFfSX/BeX/lDr+0N/2J9z/NK9o/Yh/5Mu+EP/YlaN/6 Qw0Afjx/wUX/AOCT3iX4S/txfsf+G7r9qv8AaY8WXHj7xfqVhbavrXigXGoeF2jtEcz2EmweVK+d rNzlQBX2P/w4e8Zf9H0/tof+FuP/AI3R/wAFff8AlJn/AME+f+ygax/6QRV+iFAH4Uf8Ek/+CT3i X46+NP2qLez/AGq/2mPA7eCfjbr3hy4l8O+KBayeI5IDFnUb07D5t3Lu+eTjOBxX6r/8E2/+CfOg /wDBNT9nq5+Hvh/xN4m8XWt5rl5r9xqevyRSX09xclDIWaNFByUzkjJJOSa+b/8Aggf/AMlH/bl/ 7OV8U/zhr6D/AOCvuvX3hf8A4JY/tDalpl5dadqFj8P9Zntrq1maGa3kWzkKujqQysDyCCCKAPo2 ivxR/Y//AOCNHg344fslfC7xprXxa/aKGs+MPCOk63fi3+IFxHCLi5s4ppNilSVXe7YGTgY5Neif 8OGPhz/0Vr9pT/w4lx/8RQB+tVUvEmiR+JvDuoabMzxxahbSWzsn3lV1KkjPfmvyi/4cMfDn/orX 7Sn/AIcS4/8AiK7D/g3Q0C9+HPxD/a38DyeJvFnibSPA3xGi0nSpfEGrS6ldQwLbHCmRz36nAAJ7 UAfLH/BW7/ghmn/BPf8A4I5fEa68M/tIftCa14N8GW1kbXwPqevR/wDCNzifV7YMr2scargSTNMA MfvAG619dfD7/ghb4w1XwFod0v7cX7ZNqtzp8Eohh8ahY4Q0anao8vhRnAHoK7f/AIOaf+UHPx3/ AOvXSf8A09WFfaHwm/5JX4Z/7BVr/wCiUoA/EP8AbO/4JQ+JPh7/AMFcv2O/Ac/7VP7S/iC88fx+ LjbeJtT8UCbWvC32XTFlYafNs/deeD5cvB3IAK+zP+HD3jL/AKPp/bQ/8Lcf/G6g/wCCjP8Ayn4/ 4J6/9cvH3/plSv0XoA/Cj/gil/wSe8S/tFfAr4panY/tVftMfD2PRfit4h0OSz8L+KBZ2+ovbyRB r2ddh3XMu7Mj/wARUV+s/wDwTs/YX8P/APBOD9lDQfhH4Y1rXPEGj+H7i8uYr/V2ja8ma5uZLl95 jVV4aUgYUcAZyea+X/8Ag23/AOTX/jh/2XXxb/6Ngr1b/gvN4n1LwZ/wSB+POqaPqF9pOp2fh3zL e7s52gngb7RCMo6kMp5PIPegD66or8bPgZ/wRI8C/EP4J+DvEGofFr9o4X+uaHZahc+V8QrhY/Ml gSR9o2nA3McDJ4rqf+HDHw5/6K1+0p/4cS4/+IoA/WqivyV/4cMfDn/orX7Sn/hxLj/4iu8/4Nm0 1LQ/hH+0t4ZvfEXiXxJZ+Cfjnr3h3S7nXNSk1C7js7WG0iiRpJCT0GTjALMxwM0Ab3/B0X/yiR8Q f9jV4d/9OcFfohX53/8AB0X/AMokfEH/AGNXh3/05wV+iFAHz7+0t/wUc8H/ALM37RPhH4U3Xhvx 94t8deONLudY0rTfDWlR3jSW1ucSsxeWMKV649Kh/wCHgN7/ANEB/aI/8Jq1/wDkuvnf9qH/AJWS /wBl7/smvif/ANmr9EKAPPP2Zv2ktH/ak+H954g0fS/EOiLp2rXmiXthrdotrfWd3aymKaN0V3Aw wIyGOa9Dr53/AOCcv/IqfFv/ALK34s/9OMlfRFABRRRQAUUUUAFFFFABRRRQAUUUUAFFFFAFXXtC sfFGh3mmalZ2uoabqMD2t3a3MQlhuYnUq8bowIZWUkEEYIJFeA/8Oiv2VP8Ao2v4D/8AhCaZ/wDG a9c+PPxGl+DvwN8Z+LoLWO+m8K6FfavHbO5Rbhre3eUIWGSAxTGR0zX5y/s4/wDBUf8Abw/au+B3 hr4jeCf2SfhrqXhTxdZi/wBMuZfiPBbvNESQCY5AGXlTwwBoA+yvD/8AwSq/Zj8J69Y6ppf7PHwS 03VNMuI7uzu7bwTpsU1rNGwZJEdYQVdWAIYEEEAivfK/Lv4w/wDBW39sf9lDWPh/efF/9l/4f+E/ CPjjxnpfg3+0rPx7HqM0E97KVUiKIFjhEkbJwMqASM1+olAH50f8Ez/+U7f/AAUT/wCuvgL/ANM9 xX3f8b/+SLeL/wDsCXv/AKIevhD/AIJn/wDKdv8A4KJ/9dfAX/pnuK+7/jf/AMkW8X/9gS9/9EPQ B+a//Bvz/wAoffgt/wBeN/8A+nO7r7Ir43/4N+f+UPvwW/68b/8A9Od3X2RQAV8o/wDBN/8A5T8f tdf9ib4T/wDRFfV1fKP/AATf/wCU/H7XX/Ym+E//AERQB9Xf8Fdf+UVP7Sn/AGS/xJ/6bLiq/wDw R4/5RQ/s2/8AZNdA/wDTfDVj/grr/wAoqf2lP+yX+JP/AE2XFV/+CPH/ACih/Zt/7JroH/pvhoA+ f/8AgvD/AMlk/YW/7OK8Pfylr9EK/O//AILw/wDJZP2Fv+zivD38pa/RCgD87/8Agjp/ykW/4KBf 9lK0/wD9Inr64/b0/wCTGfjR/wBiJrn/AKb56+R/+COn/KRb/goF/wBlK0//ANInr64/b0/5MZ+N H/Yia5/6b56APjD/AIItf8oqvgX/ANitb/zavp+vmD/gi1/yiq+Bf/YrW/8ANq+n6ACvmH/gjh/y lZ/4KAf9hjwZ/wCmm5r6er5h/wCCOH/KVn/goB/2GPBn/ppuaAPbv+C8v/KHX9ob/sT7n+aV7R+x D/yZd8If+xK0b/0hhrxf/gvL/wAodf2hv+xPuf5pXtH7EP8AyZd8If8AsStG/wDSGGgD4/8A+Cvv /KTP/gnz/wBlA1j/ANIIq/RCvzv/AOCvv/KTP/gnz/2UDWP/AEgir9EKAPzv/wCCB/8AyUf9uX/s 5XxT/OGveP8Ags1/yiY/aQ/7J1rf/pHLXg//AAQP/wCSj/ty/wDZyvin+cNe8f8ABZr/AJRMftIf 9k61v/0jloA8n/4Jvf8AKO/4C/8AZOvD3/pst69orxf/AIJvf8o7/gL/ANk68Pf+my3r2igAr5g/ 4IM/8nT/ALc//ZWV/wDSY19P18wf8EGf+Tp/25/+ysr/AOkxoA7f/g5p/wCUHPx3/wCvXSf/AE9W FfaHwm/5JX4Z/wCwVa/+iUr4v/4Oaf8AlBz8d/8Ar10n/wBPVhX2h8Jv+SV+Gf8AsFWv/olKAPgj /goz/wAp+P8Agnr/ANcvH3/plSv0Xr86P+CjP/Kfj/gnr/1y8ff+mVK/RegD87/+Dbf/AJNf+OH/ AGXXxb/6Ngr0j/g4L/5QyftBf9i1/wC3ENeb/wDBtv8A8mv/ABw/7Lr4t/8ARsFekf8ABwX/AMoZ P2gv+xa/9uIaAHfspf8AJrnw1/7FXS//AEkirvq4H9lL/k1z4a/9irpf/pJFXfUAFfMH/Bt//wAg r9sT/s4/xV/K1r6fr5g/4Nv/APkFftif9nH+Kv5WtAGv/wAHRf8AyiR8Qf8AY1eHf/TnBX6IV+d/ /B0X/wAokfEH/Y1eHf8A05wV+iFAHw//AMFF/wDgmV8W/wBpn9sj4b/Gr4N/GnSfhF4s+HugX2hR y3vhaPXPPS6fMhCSuIx8uV5UnuCK4/8A4Ya/4KG/9HzeD/8Aw0Gl11f/AAUa/wCClPxk/Zz/AG0f hp8Evgr8JPDfxQ8UfELw/fa8qar4hGjiBLV8OA7DYflBPJBzwK5T/hsP/go1/wBGd/C//wAOha/4 0AfTn/BPL9mHxl+yf8BLzQfiB44s/iN4y1nxDqXiLVtetdJXS4r2e8uGmbFuhKpgnGFwPQCvdK8I /wCCd37THjb9qb4B3mufEbwfpfgPxroviLU/DuraLp+pf2jb2s1ncNC22cAB87c5GR6E17vQAUUU UAFFFFABRRRQAUUUUAFFFFABRRRQB5f+29/yZd8Xv+xK1n/0hmrw/wD4ID/8obf2e/8AsVYv/Rsl fTnxj+HMPxh+EXirwjcXUllb+KdHu9IkuI1DPAtxC8RcA8EqHyAfSvzx+En/AAQL+K/wH+G+j+D/ AAf+3J8cvD3hnw/bi107TbPT7RILOIEkIg3cDJP50AdF/wAHH3/Jvv7Pf/ZwHhD/ANDua/RCvzR8 a/8ABBfxt8RNb8H33xP/AGyvi5488PeB/E2n+K4dK1yytBZvdWcu+Msdw25BZc9g5r9Fv+Fh+H/+ g5o//gZH/jQB8Af8Ez/+U7f/AAUT/wCuvgL/ANM9xX378SfD8/iv4d6/pdr5YutS024tIS52qHki ZVyewyRX54/8E1/GGk2v/BdD/goZcSappsdvcy+A/Kka5QJLjSLgHac4OD1x0r9EP+Fh+H/+g5o/ /gZH/jQB+Qv7Gv7Dv/BRr9iT9mjwt8LfDXh/9lXU9D8JxTQ2tzqer6s91KJZ5J23mMIhIaVgMKOA O/Nenf8ACD/8FNv+hR/Y/wD/AAaa1/8AFV+ln/Cw/D//AEHNH/8AAyP/ABo/4WH4f/6Dmj/+Bkf+ NAH5p/8ACD/8FNv+hR/Y/wD/AAaa1/8AFV23/BJ/9hn9oj4P/tzfGr40/H23+F9jqHxL0PSNLtrX wbf3VxbxtZBkyVuF3LlNpzvbJzwK+9v+Fh+H/wDoOaP/AOBkf+NH/Cw/D/8A0HNH/wDAyP8AxoA8 P/4K6/8AKKn9pT/sl/iT/wBNlxVf/gjx/wAoof2bf+ya6B/6b4a/Ip/B/wAZP22v+CbX7WHxW8R/ tefEjT9N8JXvjbS4/A6y20mn6tY2MEjpbMWIfy5UYxHaD8vTNe7/APBOn/gmx8UPiF+wN8F9e039 vL4s+CdP1jwVpN5beH7IWX2bRI5LSJltY9z7tkYIQZ5wooA9+/4Lw/8AJZP2Fv8As4rw9/KWv0Qr 8F/+Cq37AfxE+F3xH/ZZt9W/bO+JnxCk8T/GLR9IsbnUBabvClxIJNupwbGI82LHG7C8819gf8Oq Pi5/0ka+NH5WH/xdAGx/wR0/5SLf8FAv+ylaf/6RPX2t+1B8OtQ+MH7NHxE8I6S1uuq+KfDGpaRZ m4cpCJri1lij3sASF3OMkA4GeDX4o/8ABOb9gP4ifEL9sX9rfR9N/bO+Jngm88J+NbOy1DWrIWnn +L5GtmYXU+5sb1A2jbkYNfan/Bvv+0R4s8ZfCH4+aJ8UPirqHxD1T4efGfXfCOmazr15ELq4sLOG zSIgAgBWYyPgZGXbBoA8R/Zb/ZA/4KQfsm/s9eEfhvoPh39lDUNH8G6emnWlxf6vq7XU0a5wZCgV S3PZQPau+/4Qf/gpt/0KP7H/AP4NNa/+Kr9LP+Fh+H/+g5o//gZH/jR/wsPw/wD9BzR//AyP/GgD 80/+EH/4Kbf9Cj+x/wD+DTWv/iq9O/4I4fsRfHb9nH4+ftGfEr48Q/Du18QfGi80G6t7bwfe3FxZ wfYLa5t3yJ1DrlXiIyzZO7oMCvt7/hYfh/8A6Dmj/wDgZH/jR/wsPw//ANBzR/8AwMj/AMaAPl// AILy/wDKHX9ob/sT7n+aV7R+xD/yZd8If+xK0b/0hhr8G9R8F/GX9sP/AIIa/Fb45eNP2uviVeJH BrUNx4EnktpLDUYbW8aFInJIk2uqg8D6V9qfsw/8Ew/it4m/Zq+HmpWv/BQT4waDa6h4Z025h0y3 Fj5WnI9rGywJl87YwQozzhaAPUP+Cvv/ACkz/wCCfP8A2UDWP/SCKv0Qr8F/+Ch/7AfxE+H/AO21 +yLoupftnfEzxpfeLPFuo2mn65ei0+0eD3S0Rmubfa23c4Ow7sDAr7A/4dUfFz/pI18aPysP/i6A Nj/ggf8A8lH/AG5f+zlfFP8AOGvqz/gob8CNc/ai/YT+L3w58NNYx+IPHHhLUtE05r2UxW6zz27x oZHCsVXcwyQCQOxr8e/+CT/7AfxE+KfjL9qKHSf2zviZ8O5PDPxq13Rr6fThabvFVxEYt+qT72H7 6bI3bfl+UYr7m/4N7/2mPEvxZ/Yk8STfE74kXXjbxFoPxB1zQ4tV1q9j+1T2ttJGkWeRx1Ixx8xo A8U+B37N/wDwUo+AvwV8H+BdL8MfslXWl+C9EstCs57vVtYa4mhtYEgR5Cu1S5VASVUDJOABxXU/ 8IP/AMFNv+hR/Y//APBprX/xVfpZ/wALD8P/APQc0f8A8DI/8aP+Fh+H/wDoOaP/AOBkf+NAH5p/ 8IP/AMFNv+hR/Y//APBprX/xVetf8EVf2H/jN+yXqvx48TfG2PwLB4n+L3i6PxIsHhS8nubKAeQU dR5yB1+boCW4719pf8LD8P8A/Qc0f/wMj/xrF+I/xQ0fTfh5r1xa+INKjurfTriSF0vY9yOImKkc 9QQKAPkH/g5p/wCUHPx3/wCvXSf/AE9WFfaHwm/5JX4Z/wCwVa/+iUr+c743/Dv4wftJf8G5erft BePP2tfiR4obXLKOa/8Ah/fvbyWF15fiBLJFZs+YdvlpOOPvKO1fon4A/wCCWfxav/Amizx/8FEP jJZxzWEEi26Cw2wAxqQg+foOn4UAdP8A8FGf+U/H/BPX/rl4+/8ATKlfovX4I/tkfsDfETwh/wAF Zv2QfCt5+2Z8S/E+r+LY/Fh0/wAXXQtPtvg7yNMWSQW+1tn+kqfLbcRwOOa+xv8Ah1R8XP8ApI18 aPysP/i6ANj/AINt/wDk1/44f9l18W/+jYK+jf8Agqv+zF4k/bO/4J4/Fb4XeEJNNj8S+NNH+wae 2oTtDarJ5sb/ADuqsVGFPIU1+TX/AARg/YD+Inxi+B3xQvtF/bO+Jnwvt9M+KfiDS57DSxaeXqs0 TxB9QfewPmTZBbHHyjFffX/Bvf8AtUa98fP+CWPgfxN8S/HjeJ/GF1qWswXeo6tex/a50i1O5ii3 ZI6RooHHQCgDxD4d/BL/AIKXfDb4f6H4ds/Cv7Is1noGn2+mwSTarrJkkjhjWNSxBA3EKCcADPYV s/8ACD/8FNv+hR/Y/wD/AAaa1/8AFV+ln/Cw/D//AEHNH/8AAyP/ABo/4WH4f/6Dmj/+Bkf+NAH5 p/8ACD/8FNv+hR/Y/wD/AAaa1/8AFV7P/wAEOf2HPit+xJ8KfjB/wuL/AIQ5fF3xR+Jmp+Oni8NX c1zYwLeQ225FMqK64ljkAU7iF25YnNfYv/Cw/D//AEHNH/8AAyP/ABo/4WH4f/6Dmj/+Bkf+NAHw P/wdF/8AKJHxB/2NXh3/ANOcFfohX5vf8HPnjHSNV/4JM6/Da6rptzMfFPh4hIrlHYganAScA9q/ Qn/hYfh//oOaP/4GR/40AfA/7UP/ACsl/svf9k18T/8As1fohXxR+3r/AMEvv+G9v2mvA/xT8F/H rxP8J/GXw/0W60a2uvC8dvczPDcvukJZmyuR8uMcg1w3/Dmb4+f9H/ftAf8AgFaf40AfRH/BOX/k VPi3/wBlb8Wf+nGSvoivFv2Cv2Rbr9ir4ESeENR8da58SNWvNZv9c1DxDrEKRXmoXF3MZpGkCErn cevevaaACiiigAooooAKKKKACiiigAooooAKKKKACiiigDif2jf2c/Bn7WvwV174d/ELRV8ReDfE 0SQ6lpzXM1sLlEkSVR5kLpIuHjQ5VgeMdMivj3/iGD/YX/6IVb/+FZrv/wAm19eftN/tG+Gv2Sfg X4g+InjBtSTw34ZiSa+awspL24CvKkS7IowWf5pF4A4GT2r4r/4igf2V/wDn7+KH/hCaj/8AG6AP kX9hn/ghj+yv8X/+Cs/7aHw18RfCqHUvBPwpk8IL4V00+INViGlC+02aa6xIl0ssnmSIrfvXfbjC 7RxX2l/xDB/sL/8ARCrf/wAKzXf/AJNr4b/Yg/4LpfAX4P8A/BVz9sr4lazceOl8MfFaTwk2gtb+ FLye5YWOmzQT+dCqb4fncbd4G4cjivsz/iKB/ZX/AOfv4of+EJqP/wAboA2P+IYP9hf/AKIVb/8A hWa7/wDJtH/EMH+wv/0Qq3/8KzXf/k2sf/iKB/ZX/wCfv4of+EJqP/xuj/iKB/ZX/wCfv4of+EJq P/xugDY/4hg/2F/+iFW//hWa7/8AJtH/ABDB/sL/APRCrf8A8KzXf/k2sf8A4igf2V/+fv4of+EJ qP8A8bo/4igf2V/+fv4of+EJqP8A8boA/OP9lf8A4JA/s6fET/gjb+1r8U9Z+HMd548+GuqePLfw 3qh1vUozpsem2zPZARLcCKTymAOZEYt/Fur7I/4Jr/8ABu7+xx8ev+CevwR8beLPg3Dq3ijxd4H0 fV9WvT4m1mE3d1PZxSSybI7tUXc7E4RQozwAK+Kf2Xf+CwXwZ+HX/BHn9q/4V6lP4wXxZ8S9U8dX GirD4cupbVk1K2ZLbzZwuyI7iNwcjYOTivsH/gnB/wAHE/7N3wE/4J/fBTwR4guviIuu+EfBGkaR qAtfBl/cQCeCzijk2SKhV13KcMpwRyKAPM/+Ctv/AAQs/ZV/Zp+Jn7J+n+CfhTDodn8SPjTo3hTx HGPEGq3H9paZOJPNtyZbpzHu2j54yrjHDCvs3/iGD/YX/wCiFW//AIVmu/8AybXxD/wVi/4Lr/AP 9pf4k/sqah4XuPHTW/w2+M2j+K9a+2+FL21ZbGASeYYg6AyyfMMRrlj2FfY3/EUD+yv/AM/fxQ/8 ITUf/jdAHyV/wTU/4IWfsq/Hv9tL9sPwp4t+FMOreH/hf44s9I8MWh8QarD/AGXayWrSPGHjuleT LAHdIXb3xUP/AARf/wCCGP7K/wC1Xp/7S8nj74VQ+IG8A/HXxJ4P0EnxBqtt9g0q0Ft9ntv3N0m/ Z5j/ADvuc55Y4FU/+Cbv/Bdf4B/AP9sz9r3xZ4guPHS6R8UfG9nq+hm18KXtxM0Edq0becioWhbc R8r4JHNRf8EbP+C6XwF/ZSsP2ko/F1x46RvH/wAcfEfjDSfsPhS8vM2F2LbyTJ5aHy5P3bZjbDLx kc0Afcn/ABDB/sL/APRCrf8A8KzXf/k2j/iGD/YX/wCiFW//AIVmu/8AybWP/wARQP7K/wDz9/FD /wAITUf/AI3R/wARQP7K/wDz9/FD/wAITUf/AI3QBsf8Qwf7C/8A0Qq3/wDCs13/AOTaP+IYP9hf /ohVv/4Vmu//ACbWP/xFA/sr/wDP38UP/CE1H/43R/xFA/sr/wDP38UP/CE1H/43QB+X/wAAf+CT 37P/AI0/4Nv/AInfHbU/h/HdfFbw/H4gbT9d/tnUEa3NrqDwwfuFnEDbYwB80Zz1OTzX6Ofsr/8A Btr+xT8Rf2Yfhv4g1n4JwXmsa94X0zUb64PinW4/PnmtIpJH2reBVyzE4UADPAAr81fgL/wVk+EP gv8A4N0fiZ8B76bxYPH/AIgj19bRI/D1zJYE3V+80W65C+WvyEZyflPBr9FP2XP+Dk/9mP4c/sy/ Drw9qV18Sl1LQfDGm6ddCHwTqEsYlhtIo32uI8Mu5TgjgjmgDwT/AIKQf8ELP2VfgR+3T+xz4P8A Cnwph0nw58UvGGpaX4nsx4g1Wb+1LaK0jkjjLyXTPHhyTmJkJzySK+zf+IYP9hf/AKIVb/8AhWa7 /wDJtfEH/BRf/guv8A/jx+3D+x/4w0C48dNovwt8X6lqmum68KXtvMsMtokaeTGyBpm3A5VMkDmv sf8A4igf2V/+fv4of+EJqP8A8boA+Sv+CQ//AAQs/ZV/aa8bftW2njj4Uw65b/Df446/4R8OIfEG q2/9naXbGLyLfMV0hk27j88m5znljR/wQ2/4IWfsq/tefss+NvEXxE+FMPiLWdJ+JHiDQbS4bxBq tr5VlbTosEW2G6RTtUkbiCx7k1m/8Ek/+C6/wD/Zj8aftUXfim48dLD8SPjbr3i/RvsXhS9uy1hc mLyjKEQ+VJ8pzG2GXuKP+CIv/Bdf4B/shfsveNPDvjK48dR6lq3xG1/Xrcaf4Uvb2M21zOrRbnjQ hXwOUPK96APt/wD4hg/2F/8AohVv/wCFZrv/AMm0f8Qwf7C//RCrf/wrNd/+Tax/+IoH9lf/AJ+/ ih/4Qmo//G6P+IoH9lf/AJ+/ih/4Qmo//G6ANj/iGD/YX/6IVb/+FZrv/wAm1j/EP/g2Y/Yf0PwB rl7a/A63iurPT7iaF/8AhK9cbY6xsynBvcHBA60f8RQP7K//AD9/FD/whNR/+N1kfEH/AIObf2XN c8Ba5ZW938TfPvNPngj3eBtRVdzRsoyTHgDJ60AfmJ/w6u+An/EKf/w0d/wgMf8Awuf+z/P/AOEj /te/3b/+En+w5+z+f9m/49v3f+qx3+981fql8PP+DZf9h/XPAGh3t18DreW6vNPt55n/AOEr1xd7 tGrMcC9wMknpX5Qf8PVfhL/xCyf8M4+d4q/4WX9g8jZ/YFz/AGbu/wCEm+3f8fe3yseT3z975etf qR8Pv+Dm39lzQ/AWh2Vxd/E3z7PT4IJNvgbUWXcsaqcER4IyOtAHy3+2r/wQx/ZX+E//AAV+/Y1+ GPh/4VQ6f4G+Kcfi9vFGmDxBqsg1Q2OlrPa5le6MsflyEt+6dN3Rtw4r7T/4hg/2F/8AohVv/wCF Zrv/AMm18N/tnf8ABdL4C/Fj/grl+x38T9IuPHTeFfhXH4uXXWn8KXkN0pvtMWCDyYWTfN84O7YD tHJ4r7M/4igf2V/+fv4of+EJqP8A8boA+Sv+CIv/AAQs/ZV/a1+A3xV1n4hfCmHxFqXhz4s+IvDe nTN4g1W1+zafayQiCDEN0itsDN8zAuc8sam/4IKf8EJ/2U/2yv8AgmZ4P8f/ABK+FMPiXxdqmqaz b3V+3iHVrUyxwancwRDy4LpIxtjjRchQTjJySTWP/wAEUv8Aguv8A/2R/gV8UtG8YXHjpL3xH8Vv EPiWzFh4Uvb1DZ3UkRiLNGhCvhTlD8y96m/4IR/8F3PgF+xn/wAE1vCPw/8AG1x47j8RaXqesXE4 07wne31vsn1K5njxLGhUnZIuQDwcg8igD7Z/4hg/2F/+iFW//hWa7/8AJtH/ABDB/sL/APRCrf8A 8KzXf/k2sf8A4igf2V/+fv4of+EJqP8A8bo/4igf2V/+fv4of+EJqP8A8boA2P8AiGD/AGF/+iFW /wD4Vmu//JtH/EMH+wv/ANEKt/8AwrNd/wDk2sf/AIigf2V/+fv4of8AhCaj/wDG6P8AiKB/ZX/5 +/ih/wCEJqP/AMboA+Sv+C9v/BCz9lX9jT/gnTrHjn4a/CmHwz4qtfEGjWUV8viDVborDcX8UUq7 J7p0+ZGYZK5Gcgg819m/8Qwf7C//AEQq3/8ACs13/wCTa+IP+C73/Bdf4B/tm/8ABPLWPAvgm48d Sa9da/o16g1Hwpe2MHlwX0UsmZJECg7VOBnJPAr7H/4igf2V/wDn7+KH/hCaj/8AG6APoL9ij/gk p+z3/wAE6/Futa98G/h7H4N1bxDZrYahOus6jffaIFcOqbbqeVVwwByoB98V9HV8yfsJ/wDBW74P /wDBRbxlrmg/DabxdLqHh2yS/vBq/h260yMRM4QbWmUBm3HoOcc19N0AFFFFABRRRQAUUUUAFFFF ABRRRQAUUUUAFFFFABRRRQAUVwf7Tfhv4geLvgX4g074V+JNH8I+P7qKNdI1fVbH7dZ2TiVC5kh/ jBjDqB2LA9q+K/8Ahl7/AIKTf9HQ/A//AMN9/wDWoAg/4Jn/APKdv/gon/118Bf+me4r9F6/CP8A Yg+BX7a2sf8ABVz9srTfCfx0+F2j/ETSZPCX/Ca6zd+EPPstdL6bM1l9mhx+58qIMr/3iQa+zP8A hl7/AIKTf9HQ/A//AMN9/wDWoA/RCivzv/4Ze/4KTf8AR0PwP/8ADff/AFqP+GXv+Ck3/R0PwP8A /Dff/WoA/RCivzv/AOGXv+Ck3/R0PwP/APDff/Wo/wCGXv8AgpN/0dD8D/8Aw33/ANagD54/Yi/5 V7P27/8AsN/E/wD9I3r9B/8Agjx/yih/Zt/7JroH/pvhr8Vf2Xfg9+1hqP8AwR5/aw1Xw/8AGD4e ab8M9M1Tx0vi7Q7jwx5t9rMsdsx1BoJ8fuRMmQg/gPNfYP8AwTg/Z1/b81//AIJ/fBS+8D/tFfB/ QPBt54J0ibQ9NvvBH2m6sLJrOIwwyy4/eOkZVS3cgmgD2n/gvD/yWT9hb/s4rw9/KWv0Qr8KP+Cs PwJ/bY8M/Er9lSP4i/Hb4W+Jr7UvjNo9p4Sl03wh9jTR9YYSeRdzjH76FOcx9819j/8ADL3/AAUm /wCjofgf/wCG+/8ArUAH/BHT/lIt/wAFAv8AspWn/wDpE9Qf8G7X/IK/bI/7Oa8Yfys6+P8A/gm5 8Cf22Nf/AGzP2vbTwN8dvhboHijS/G9nD4xv77wh9qt9bvTasUmt48fuUCZBXueai/4I2fAr9tbx XYftJH4YfHX4XeFE0/44+I7PxMNU8Ifbf7V1tBbfaryHj91DJmPbH/DtPrQB+7lFfnf/AMMvf8FJ v+jofgf/AOG+/wDrUf8ADL3/AAUm/wCjofgf/wCG+/8ArUAfohRX53/8Mvf8FJv+jofgf/4b7/61 H/DL3/BSb/o6H4H/APhvv/rUAfJH7LP/ACqD/Gf/AK5eK/8A06yV+u/7EP8AyZd8If8AsStG/wDS GGv58fgL8Jv2o73/AIN0fiZr2j/FnwDZfBG3j1/+1PC83hvzNVuwt+4udl1j5d8mWX+6Div0U/Zc /Zr/AOCh2pfsy/Dq48P/ALSnwZ03Qbjwxpsmm2lx4E82a1tjaRGKN3x8zKhUFu5BNAHdf8Fff+Um f/BPn/soGsf+kEVfohX4Uf8ABRf4E/tsaD+3F+x/Z+N/jt8Lde8Wap4v1KLwbqFj4Q+zW+iXYtEM stxHj98jJgBexGa+x/8Ahl7/AIKTf9HQ/A//AMN9/wDWoAP+CB//ACUf9uX/ALOV8U/zho/4NpP+ TJPiP/2WDxV/6UpXxx/wST+BP7bHifxp+1Qnw3+O3wt8MXWm/G3XrPxZJqXhD7Yusa0pi+0XkAx+ 6hfK7Y/4cGj/AIIifAn9tjxh+y940uPhT8dvhb4P8Pw/EbX4L6z1bwh9umn1FZ1FzOr4+WN2wVT+ ECgD916K/O//AIZe/wCCk3/R0PwP/wDDff8A1qP+GXv+Ck3/AEdD8D//AA33/wBagD9EK5/4s/8A JK/E3/YKuv8A0S9fB/8Awy9/wUm/6Oh+B/8A4b7/AOtWR8Qf2Y/+CjkHgLXJL39pz4Jz2aafO08a eAdrSRiNtyg44JGRmgD5H/50cv8AuFf+7nX7f/Cb/klfhn/sFWv/AKJSv5sP+FVftOf8Qsn/AAkn /C1vAn/DPv2Dd/wh/wDwjv8AxOfL/wCEm2bftmOv2v8Ae5/ufLX6kfD79mP/AIKOT+AtDksv2nPg nBZvp8DQRv4B3NHGY12qTjkgYGaAND/goz/yn4/4J6/9cvH3/plSv0Xr8I/2zvgV+2rpP/BXL9jv S/FHx1+F2rfEjVY/F3/CGa3a+EPIsdDEemK179ogx++82HCJ/dPNfZn/AAy9/wAFJv8Ao6H4H/8A hvv/AK1AB/wbb/8AJr/xw/7Lr4t/9GwVY/4Nd/8AlDV4A/7DXiH/ANPN5Xxh/wAEU/gT+2x4u+BX xSm+Ffx2+FvhHSLb4reIbbVbfVfCH26S81RJIvtNyjY+SKQlSqfw4NTf8EI/gR+214z/AOCa3hHU PhF8ePhb4M8Cy6nrC2elax4P/tC7glXUrlZ2aXHzB5Q7AdgwHagD90aK/O//AIZe/wCCk3/R0PwP /wDDff8A1qP+GXv+Ck3/AEdD8D//AA33/wBagD9EKK/O/wD4Ze/4KTf9HQ/A/wD8N9/9aj/hl7/g pN/0dD8D/wDw33/1qAD/AIOi/wDlEj4g/wCxq8O/+nOCv0Qr8KP+C73wJ/bY8Gf8E8tYvvi98dvh b408Frr+jJNpmj+EP7Punna+iEDiXHCpIVYjuARX2P8A8Mvf8FJv+jofgf8A+G+/+tQB+iFFfMn7 Cfwj/ao+HPjLXLj9oD4ufD/4jaJcWSR6Xa+H/DX9lS2lwHBaR3x8ylMjHrzX03QAUUUUAFFFFABR RRQAUUUUAFFFFABRRRQAUUUUAebftl6nc6J+yB8VryzuJ7O8s/B2rzQTwyGOSGRbKYq6sOVYEAgj kEV+Xn/BLj/gi1oH7ZP/AAT6+FPxQ8WfH/8Aast/EnjXRE1HUI9O+JEsNqkhd1IjRonZVwo4LH61 +nn7b3/Jl3xe/wCxK1n/ANIZq/PP/gjL/wAFmv2W/gF/wS4+Cfg3xl8bPBfh/wAUeH/DsdrqOnXc 0gmtJRJISjAIRnBHfvQB5n/wU0/4Jl2f/BNXSPgd468C/HH9pTWNS1j4xeGfDl3aeI/H819YzWlx NI8qtEqR5J8lRySMFgQc8ftRX45/8Fpf+Co/7Pv7ZPgD4AeE/hf8VvC3jXxJb/HPwpqMmn6dK7TJ bpLMjyEMoG0NIg/4EK/YygD86P8Agmf/AMp2/wDgon/118Bf+me4r9F6/Oj/AIJn/wDKdv8A4KJ/ 9dfAX/pnuK+7/jY7R/Bnxcykqy6LeEEHkHyHoA6iivwB/wCCR/8AwRf+B/7W3/BO34a/ETxtZ+Mr /wAUeJbW7lv54PFV9bxyNHfXEK4jSQKvyRqOB2zX0d/xDp/sy/8AQI8df+FlqP8A8doA/XCivyP/ AOIdP9mX/oEeOv8AwstR/wDjtH/BEP8AZ08Ofsi/8FiP2pfh34NOrw+FdF8J+Gri0t7/AFGa+eJ5 kaWQ75WLcsx78dKAIP8Agon/AMG+vwt+A/7E37RXj/wx8Tv2gdNmg8NeJPGMmhQ+Mli0K8vDaz3L pNapAoeF2AVlJyycFu9N/wCCcH/BBLwP8bv+Cf3wV8ZXnxy/ak0W78U+CNI1Waw0b4hvaafZPNZx SGK3h8k+XEpbCpk4UAZr7x/4K6/8oqf2lP8Asl/iT/02XFV/+CPH/KKH9m3/ALJroH/pvhoA/Lj/ AIKxf8EWfB/7PHxK/ZUsdP8AjD+0Zr6fEL4zaP4YupNe8ctfS6XFOJN1zZsYh5F0uPll525PFfY/ /EOD8Pv+jhP2wP8Aw5z/APxij/gvD/yWT9hb/s4rw9/KWv0QoA/Cj/gm7/wRa8H/ABv/AGzP2vfD F58Yf2jNFtvhv43s9KtLzRvHLWl7qyPas5lvpfKPnygjAcgYHGK/Vf8A4J1/8E4fA/8AwTM+FXiT wl4F1bxlrlp4r8RXHinUr3xNqKahfXF7PDBFI5lWOPIYQIx3AsWZiSc8fN//AAR0/wCUi3/BQL/s pWn/APpE9fXX7d0zW/7D3xlkjZo5I/A2tsrKcFSLCfBBoA9Wor8Hf+Can/BEP4DftKfsG/Czx54s sfGl54k8U6FFfahPD4rv4I5JWLZIRZAqjjoBivcv+IdP9mX/AKBHjr/wstR/+O0AfrhRX5H/APEO n+zL/wBAjx1/4WWo/wDx2tv/AIN8Pglon7M/7df7b3w78Ltqi+F/CuqeEYtNgvr+W8kgWXT7yZ/3 khLHLux5PoO1AHlv/BT7/g31+Fv7Hf8AwTP+M/irwb8Tv2goYfDuiXerweH7jxkp0KeV5A7rLaJA isjMxJGRk9TXrv7Ln/Bvd4D8ffszfDrXp/j1+1hYza14Y02/ktrH4kPDa27S2kTlIk8g7I1LYVcn AAFfSX/BeX/lDr+0N/2J9z/NK9o/Yh/5Mu+EP/YlaN/6Qw0Afjx/wUX/AOCLPg/4Kftxfsf+FLP4 w/tGaza/ErxfqWm3d7rHjlru+0hYrRJBJYy+UPs8jE4ZgDkACvsf/iHB+H3/AEcJ+2B/4c5//jFH /BX3/lJn/wAE+f8AsoGsf+kEVfohQB+FH/BJP/giz4P/AGi/Gn7VFrqHxh/aM8Pr8P8A42694VtX 0Dxy1i+qQ25i23V4REfOun3fPLxuwOBX6z/8E/P2AvBf/BNz4DS/DzwLqHijVNHuNWudalufEF6l 5fS3Fxt8wtIkcYIJQHlc5JyTXy//AMED/wDko/7cv/Zyvin+cNe+f8FkbqWy/wCCUH7Rk0MkkM0f w81pkdGKshFnLggjkGgD6Uor8Rf2M/8Agg5+z18Zf2PvhR4w17TfG1xrnizwdpGsajLH4u1CJJbm 4soZpWCLJhQXdiAOB0r0r/iHT/Zl/wCgR46/8LLUf/jtAH64VT1/RYfEmhX2n3BkW3v7eS2kKHDB XUqcH1wa/Jv/AIh0/wBmX/oEeOv/AAstR/8AjtdR/wAG3Pwx034HfEv9sLwPoUmof8I/4R+JUWm6 ZFeXkl1JBAlqdql5CWP1JoA+c/8Agsh/wQP+Gf7BH/BIv4m+JfBPxN+P1zaeD7exax8Oar4xE+gN 52q2sbh7NIEQjMzyADH7zDcnr9W/D7/g3T8Aaz4B0O8f9oD9rqFrrT4Jmjh+JbrGhaNThR5HCjOA Owrt/wDg5p/5Qc/Hf/r10n/09WFfaHwm/wCSV+Gf+wVa/wDolKAPxD/bO/4IveEPhj/wVy/Y7+HF t8YP2i9S0/4lx+Lmu9W1Lxy1xrGkfYtMWZPsNx5QNv5hO2TAO9OOK+zP+IcH4ff9HCftgf8Ahzn/ APjFQf8ABRn/AJT8f8E9f+uXj7/0ypX6L0AfhR/wRT/4Is+D/wBqT4FfFLVtS+MP7RnhmXw/8VvE Ph6KDw145bTre6jtpIgtxMgibfcPu+eTjcQOBiv12/YQ/Yj8If8ABO/9mbRPhT4FutevPDWgz3Vx bzazcpc3jtcXElxJvdERT88jYwo4x1618of8G2//ACa/8cP+y6+Lf/RsFem/8F/72bTv+CNvx/mt 5pIJo/DeUkjYqyn7RD0I5FAH2HRX4xfAT/g3/wD2cfHvwK8F65qWl+OJdR1rQbG/unXxhqCK8stv G7kKJcAFmPA4Fdb/AMQ6f7Mv/QI8df8AhZaj/wDHaAP1wor8j/8AiHT/AGZf+gR46/8ACy1H/wCO 12n/AAbAeELX4bfCP9qDwrp0t9Jo/hL49eINE0xLq5e4khtbeGziiQu5LNhVHJOScnvQB1n/AAdF /wDKJHxB/wBjV4d/9OcFfohX53/8HRf/ACiR8Qf9jV4d/wDTnBX6IUAflv8A8FVPgtd/tdf8FqP2 efhDffEL4oeB/CPiHwHrupXy+DfEcujzzzW7l42JUMh5GDlCccAiu4/4hwfh9/0cJ+2B/wCHOf8A +MVw/wDwUp/aW8B/sl/8F/P2Z/GnxI8T6Z4Q8K2fw78RW82pX7FYY5JGKRqSATlmIA4r6I/4f8fs a/8ARwnw/wD/AAIl/wDiKANf/gkN4Bk+Ef7Ofi7wa3iTxX4stfBvxD8R6JZal4k1N9S1Ka3gvnSM SzsAWIUY4AHoBX1TXyv/AMEkfin4e+N3wN+IHi7wnq1rrvhrxF8UPFF/puoWxJhvIH1BykikgHBH tX1RQAUUUUAFFFFABRRRQAUUUUAFFFFABRRRQBDqOnW+safcWd5bw3VrdRtDPBMgkjmRgQysp4ZS CQQeCDXmv/DEPwX/AOiQ/C//AMJWx/8AjVdB+0J8RLr4QfAPxx4ssYLe6vPC/h+/1e3hnz5Uslvb SSqr4IO0lADgg4NfnD+y1+3d/wAFGv2wP2e/CfxN8H/CX9l8+GfGViNQ077brepwXHlFio3p5h2n KnjJoA/QXTP2NPg/oupW95Z/Cn4bWd5ZyrNBPD4Zso5IZFIKurCLKsCAQRyCK9Jr8rvj5/wUk/bw /Yv1L4cap8XPhb+znZ+D/G/jnSPBks+harqN3eQyX0pXcqNIF4RJDk5AIHBzX6o0AfnR/wAEz/8A lO3/AMFE/wDrr4C/9M9xX3f8b/8Aki3i/wD7Al7/AOiHr4Q/4Jn/APKdv/gon/118Bf+me4r7v8A jf8A8kW8X/8AYEvf/RD0Afmv/wAG/P8Ayh9+C3/Xjf8A/pzu6+yK+N/+Dfn/AJQ+/Bb/AK8b/wD9 Od3X2RQAV8o/8E3/APlPx+11/wBib4T/APRFfV1fKP8AwTf/AOU/H7XX/Ym+E/8A0RQB9Xf8Fdf+ UVP7Sn/ZL/En/psuKr/8EeP+UUP7Nv8A2TXQP/TfDVj/AIK6/wDKKn9pT/sl/iT/ANNlxVf/AII8 f8oof2bf+ya6B/6b4aAPn/8A4Lw/8lk/YW/7OK8Pfylr9EK/O/8A4Lw/8lk/YW/7OK8Pfylr9EKA Pzv/AOCOn/KRb/goF/2UrT//AEievrj9vT/kxn40f9iJrn/pvnr5H/4I6f8AKRb/AIKBf9lK0/8A 9Inr64/b0/5MZ+NH/Yia5/6b56APjD/gi1/yiq+Bf/YrW/8ANq+n6+YP+CLX/KKr4F/9itb/AM2r 6foAK+Yf+COH/KVn/goB/wBhjwZ/6abmvp6vmH/gjh/ylZ/4KAf9hjwZ/wCmm5oA9u/4Ly/8odf2 hv8AsT7n+aV7R+xD/wAmXfCH/sStG/8ASGGvF/8AgvL/AModf2hv+xPuf5pXtH7EP/Jl3wh/7ErR v/SGGgD4/wD+Cvv/ACkz/wCCfP8A2UDWP/SCKv0Qr87/APgr7/ykz/4J8/8AZQNY/wDSCKv0QoA/ O/8A4IH/APJR/wBuX/s5XxT/ADhr3j/gs1/yiY/aQ/7J1rf/AKRy14P/AMED/wDko/7cv/Zyvin+ cNe8f8Fmv+UTH7SH/ZOtb/8ASOWgDyf/AIJvf8o7/gL/ANk68Pf+my3r2ivF/wDgm9/yjv8AgL/2 Trw9/wCmy3r2igAr5g/4IM/8nT/tz/8AZWV/9JjX0/XzB/wQZ/5On/bn/wCysr/6TGgDt/8Ag5p/ 5Qc/Hf8A69dJ/wDT1YV9ofCb/klfhn/sFWv/AKJSvi//AIOaf+UHPx3/AOvXSf8A09WFfaHwm/5J X4Z/7BVr/wCiUoA+CP8Agoz/AMp+P+Cev/XLx9/6ZUr9F6/Oj/goz/yn4/4J6/8AXLx9/wCmVK/R egD87/8Ag23/AOTX/jh/2XXxb/6Ngr0j/g4L/wCUMn7QX/Ytf+3ENeb/APBtv/ya/wDHD/suvi3/ ANGwV6R/wcF/8oZP2gv+xa/9uIaAHfspf8mufDX/ALFXS/8A0kirvq4H9lL/AJNc+Gv/AGKul/8A pJFXfUAFfMH/AAbf/wDIK/bE/wCzj/FX8rWvp+vmD/g2/wD+QV+2J/2cf4q/la0Aa/8AwdF/8okf EH/Y1eHf/TnBX6IV+d//AAdF/wDKJHxB/wBjV4d/9OcFfohQByXxG+AXgT4w3ttc+LvBXhLxTcWa GK3l1fR7e+eBCclUMqMVBPOBXOf8MQ/Bf/okPwv/APCVsf8A41Xy7/wUh/4KB/tAfBn9u34W/Av4 B+Dfhj4o174heG9Q155PF9zdW0cP2R/mVXhcAAoCcFSSe4rB/wCFu/8ABT7/AKJH+yf/AOFFqf8A 8XQB98eBvh7oHww8PR6R4Z0PR/DukwuzpZaZZx2lujMcsRHGAoJPJOOTWxXgP/BOD9oP4i/tG/AH UdS+K+i+FfD/AI+8P+JtV8N6tZ+HJZZdOSSyuWhzG8rM7A7c5J/AV79QAUUUUAFFFFABRRRQAUUU UAFFFFABRRRQB5f+29/yZd8Xv+xK1n/0hmrw/wD4ID/8obf2e/8AsVYv/RslfUHxZ+Hdr8X/AIV+ JvCd/NcW1j4o0q60i4mtyBLFHcQvEzJuBG4K5IyCMjoa/Pb4ef8ABuVJ8I/BWm+G/Cv7ZP7ZPhvw 7o8It7DTNL8dJaWdlGCSEjijhCIuSeFAHNAGz/wcff8AJvv7Pf8A2cB4Q/8AQ7mv0Qr80/Gv/BAP w7Z3vhvxN8T/ANrz9pzxZ4c8Ba/Y+J4rTxt43gu9Hju7WYNC8gni2LySm4ENiQgEZr7k/wCGyPhD /wBFU+G//hTWX/xygD4w/wCCZ/8Aynb/AOCif/XXwF/6Z7ivv/4h+HZvF/gDXNJt3jjn1TT7i0je TOxGkjZATjJwCe1fmX/wTk/aS+Hehf8ABbn/AIKAavfePvBdnpOuS+Bjp17PrdtHb3/l6TcLJ5Mj OFk2MQG2k4JwcV+gn/DZHwh/6Kp8N/8AwprL/wCOUAfmP+yj/wAErv8AgoN+xt+z74b+Gng/4mfs ut4b8LRSxWRv7HVp7giSaSZt7iFQfnkbHA4xXoX/AAyT/wAFK/8Aopn7Jf8A4KtX/wDjdfe3/DZH wh/6Kp8N/wDwprL/AOOUf8NkfCH/AKKp8N//AAprL/45QB8E/wDDJP8AwUr/AOimfsl/+CrV/wD4 3XoX/BK//gnL8eP2bv2y/jB8ZPjp4q+GPiLWvibo2l6VHH4Pju4ooDZblBZJ41wCm3ozZIPAr60/ 4bI+EP8A0VT4b/8AhTWX/wAco/4bI+EP/RVPhv8A+FNZf/HKAPP/APgrr/yip/aU/wCyX+JP/TZc VX/4I8f8oof2bf8Asmugf+m+GvxhsPCdx+17/wAE6v2qPid40/bU+Ndlrmgah41s9K8CL8S1Gj65 ZWsMj21s1nKzPLBOGMRRDtdPlWvd/wDgn5+wB4N8c/sL/B/Wrz/god+0F4DutV8HaVdzeG9M+Ldr YWWgu9pGxtIbduYY4idixnlQoHagD6n/AOC8P/JZP2Fv+zivD38pa/RCv58/+CoH7E3hT4c/EP8A Zlt7H9ub43/EpPEXxc0nS7m61j4nW2pyeD4nD51W1Zf+Pa4ix8s7cLuPrX1p/wAO1/Av/STr9pj/ AMPVZ/4UAekf8EdP+Ui3/BQL/spWn/8ApE9fbf7Sfw0vPjR+zr4+8HafPbWuoeLPDmo6NbTXBIhi luLaSFGfaCdoZwTgE4BwDX4Uf8E+f2JvCnjn9rj9qvS7v9ub43+A7fwz4xtLS11zS/idbafdeNUa 2Zjd3czcXUiH5BIvABxX2R/wb7/tg6boXwh+Pnh34mfH+XxpceD/AIz67oHh/VvHPjOO81G70m2h s47d0knk+aJyJHBjAjLO5AGTQByH7OX/AATO/wCCh37LnwN8MfD3wx8TP2WW8P8AhKxTT7E3mn6v NP5S5xvcQgMeeuBXa/8ADJP/AAUr/wCimfsl/wDgq1f/AON197f8NkfCH/oqnw3/APCmsv8A45R/ w2R8If8Aoqnw3/8ACmsv/jlAHwT/AMMk/wDBSv8A6KZ+yX/4KtX/APjdesf8Ehf+Ce3xn/ZC+NPx ++IXxs8TfDvxH4m+NF3ol1/xSK3Udtbmwt7iA7knjQruWSLGC2SrZxxX09/w2R8If+iqfDf/AMKa y/8AjlH/AA2R8If+iqfDf/wprL/45QB4f/wXl/5Q6/tDf9ifc/zSvaP2If8Aky74Q/8AYlaN/wCk MNfz6Q+Cbz9p/wD4IkfFD4weOv20PjdfeM1i1pB8Prz4kibStUjt7x4oYZLKVmlkjdArbc4Pbivs /wDZs/4J3eCfEH7OngG/m/4KQ/tGeHZr7w5p1xJpVp8YrS2t9MZ7WNjbxxEZjSMnYEPKhQO1AHvn /BX3/lJn/wAE+f8AsoGsf+kEVfohX8+f7fv7E3hTwR+2Z+yjpNp+3N8b/HVt4m8VahbXWv6n8Tra /vPBKpaowurSdeLWSQnYXbhgAK+tP+Ha/gX/AKSdftMf+Hqs/wDCgD0j/ggf/wAlH/bl/wCzlfFP 84a+tP29/wBn/VP2rv2J/it8M9DvNP0/WPHvhXUNCsrm+LrbW81xA8SPIUVm2AsCdqk47GvxP/4J bfsS+FPiR4v/AGmIr79ub43/AAzXw98Y9b0m2n0b4nW2lv4vijMe3V7pm/4+bibPzTrw+0elfbX/ AAb4ftr6TcfsS+JLT4pfHSDxNr+j/EHXNNtNR8Z+MI7nVLixhkjSBi88u4oVBIx8vJxQByPwe/4J 8/8ABRj4H/CTwt4L0X4mfsqnRvB+kWmiWBuNO1eSY29tCkMe9hENzbUXJwMnPArov+GSf+Clf/RT P2S//BVq/wD8br72/wCGyPhD/wBFU+G//hTWX/xyj/hsj4Q/9FU+G/8A4U1l/wDHKAPgn/hkn/gp X/0Uz9kv/wAFWr//ABuvZP8Agjf/AME+fix+xDefGzXvjB4i8C+IvFXxe8Ux+JJZPCouVs4WEOx1 2zxoy5PIA3cd6+kv+GyPhD/0VT4b/wDhTWX/AMcrF+I/7Zvwpt/h5r0ln8Vvh6l2mnXDQtD4msxI riJtpXEmd2cYxzmgD5x/4Oaf+UHPx3/69dJ/9PVhX2h8Jv8Aklfhn/sFWv8A6JSv5qfil8Obj44/ 8G8GofGzxp+2T8bPFnxA1azSW9+HGsfEdb7S7xk19bVFksJC07hYUScAk4ZQ/QCv0K8Cf8E4PA17 4H0aZv8Agph+0nYtNYwObeP4z2kaW5ManYq4+UL0A7YoA9V/4KM/8p+P+Cev/XLx9/6ZUr9F6/nv /a6/Yo8K+Fv+Cp/7J3hu3/bk+N3iux8TR+KTdeNL74m213qfgjydOV0Fpdj5bX7Uf3Um7/WKNor6 4/4dr+Bf+knX7TH/AIeqz/woA9I/4Nt/+TX/AI4f9l18W/8Ao2Cvpj/gp3+yrrX7b37BHxO+E/h3 UNL0vXPHGk/2fZ3epNItrA/mxvmQxqz4wh6KTX41/wDBHv8AYm8KfFX4K/Eq81H9ub43/CWTT/id r2nR6foXxOttIh1eOJ4gupSxvzJNPnLzDh9ox0r7u/4N7/27dG8Wf8EsfA958VPjRpms+NTqWsxX d34s8WRzarLGmp3Kw+a1xL5hAiCBc8bduOMUAcX4F/YZ/wCCkHw88EaP4f0/4mfso/YNDsYNPtvN 0zV2k8uKNY03Hyhk7VGTjrWp/wAMk/8ABSv/AKKZ+yX/AOCrV/8A43X3t/w2R8If+iqfDf8A8Kay /wDjlH/DZHwh/wCiqfDf/wAKay/+OUAfBP8AwyT/AMFK/wDopn7Jf/gq1f8A+N17j/wRY/4J+/Ej 9gD4VfFa1+Kmv+DfEXiz4n/ETUPHVxP4Z+0Cyja8htw6ATRoykSxyEDkBSvJOa+hf+GyPhD/ANFU +G//AIU1l/8AHKP+GyPhD/0VT4b/APhTWX/xygD43/4Oi/8AlEj4g/7Grw7/AOnOCv0Qr8u/+Dl3 9pP4dfED/glVr2m6D4+8F63qL+J9AkW1sNctrmZlXUoGZgiOWwACSccAZr78/wCGyPhD/wBFU+G/ /hTWX/xygD43/ah/5WS/2Xv+ya+J/wD2av0Qr4Z/bE/4J7/DD/gqZ+0R4T+IHhX9orxr4L8b/DzR 7jTLa7+GHiyzgvIra4kzIZHRZJVDfd4ZVIOCDXK/8OD/ABJ/0fL+3B/4cU//ABqgD6I/4Jy/8ip8 W/8Asrfiz/04yV9EV47+wx+x1Z/sNfAoeCLTxh4y8fSS6re6xd674qvFvNW1C4upTLK80yqu87ie SMnuTXsVABRRRQAUUUUAFFFFABRRRQAUUUUAFFFFABRRRQByfxy+BnhL9pX4Vax4H8daHZ+JfCfi CNItQ0y73eTdKsiyKG2kHh0U8HqK+Y/+IfT9jH/o33wP/wCTH/x2voz9pr9oHTf2WfgX4g8fato3 ifxBp3hyJJptP8PacdQ1O5DypEBDACC5BcEjIwoJ7V8V/wDESR8L/wDoh/7WH/htJf8A49QB8z/s Ff8ABIP9mn4nf8Ffv23vAWvfCHwvqng/4cyeDh4a0ubzvJ0gXemTy3Pl4cH95Iqsck8jjFfcH/EP p+xj/wBG++B//Jj/AOO1+df7EH/BajwL8KP+Crn7ZXxEvPhb+0BqGm/E+Twk1jp2neCJLjVNL+xa bNC/26ASA2+8sGjyTvUE8Yr7M/4iSPhf/wBEP/aw/wDDaS//AB6gD0j/AIh9P2Mf+jffA/8A5Mf/ AB2j/iH0/Yx/6N98D/8Akx/8drzf/iJI+F//AEQ/9rD/AMNpL/8AHqP+Ikj4X/8ARD/2sP8Aw2kv /wAeoA9I/wCIfT9jH/o33wP/AOTH/wAdo/4h9P2Mf+jffA//AJMf/Ha83/4iSPhf/wBEP/aw/wDD aS//AB6j/iJI+F//AEQ/9rD/AMNpL/8AHqAPgD9k3/gmL8A/HP8AwRV/bA+ImrfDHw7feNvAOq/E CDw/q8nm+fpaWNqz2ix4fH7pgCuQffNfan/BMT/gh9+yf8ZP+CcvwK8W+KPgf4P1nxJ4m8B6Nqeq X8/n+beXM1lE8srYkA3MzEnAHWvgD9l3/gq/4P8AAH/BHn9q/wCGdx8O/jVear8RNU8dXFnqdl4S ebSNOGoWzJGLy43gQNGTmUEHyxzzX2D/AME4P+C+3w7+B/8AwT++Cng2/wDg/wDtL6tfeFfBGkaV cXuk/D6S7sLuSGzijaSCYSgSRMVJV8DcCDQBy3/BYP8A4I//ALNHwE+KP7Idl4P+D/hfQbXx58b9 E8Oa/HbedjVNOmEnm20m6Q/I2BnGDx1r7a/4h9P2Mf8Ao33wP/5Mf/Ha/PD/AIKxf8FrPAv7RXxK /ZUvtM+Fv7QOix/D34zaP4ovI9c8ESWUmowwCTdb2imQ+dctn5Yhgtg819j/APESR8L/APoh/wC1 h/4bSX/49QB82/8ABMH/AII//s0fGX9uD9s/w34o+D/hfWdD+Hvjyy0zw5Zz+d5ek2z2ju0UeJAd pYA8kmof+CI3/BIP9mn9o3Tv2oG8cfCHwv4jbwZ8fPE/hfRDded/xLtMtha+RaptcfIm9sZyfmPN ch/wTd/4LW+Bfgd+2Z+174o1D4W/tA6tafErxvZ6rZWukeCJLu80yNLVkMd7GJB5EpJyEJORzUX/ AARs/wCC1HgX9mKw/aSTVvhb+0Brx8c/HHxH4stT4f8ABEl+LCC6Ftst7rEg8m6TyzviOSuV5OaA P0U/4h9P2Mf+jffA/wD5Mf8Ax2j/AIh9P2Mf+jffA/8A5Mf/AB2vN/8AiJI+F/8A0Q/9rD/w2kv/ AMeo/wCIkj4X/wDRD/2sP/DaS/8Ax6gD0j/iH0/Yx/6N98D/APkx/wDHaP8AiH0/Yx/6N98D/wDk x/8AHa83/wCIkj4X/wDRD/2sP/DaS/8Ax6j/AIiSPhf/ANEP/aw/8NpL/wDHqAPzZ/Z6/wCCbvwN 8Vf8GznxT+MWofDfQbr4maLH4iNj4gfzftVsbfUZIodvz7fkQBRkdBX6Xfsmf8EHf2QfHP7K/wAM 9b1b4D+DL7VdY8KaXfXtzJ9o33E0tnE8jnEmMszEn61+VPwF/wCCofhPwh/wbo/Ez4JzeAfjFc69 r0evrFrlr4VeTw9b/ab95V82834TaDh/l+VgRzX6Kfsuf8HDXw18Afsy/DrQbj4MftRXlxonhjTb CW4svh1LNbTvFaxRl4n80b4yVyrdwQaAPJ/+CmX/AAR//Zp+Dv7e/wCxb4X8M/B/wvo+gfEPxnqm n+I7KDzvL1a3is43jjky5OFYkjBHWvtr/iH0/Yx/6N98D/8Akx/8dr88P+CjH/BazwL8bf24v2P/ ABZYfC39oHSrP4aeL9S1K+tNW8ESWt7qaS2iRhLKIyEzyAjLKCMAg19j/wDESR8L/wDoh/7WH/ht Jf8A49QB82/8EcP+CP8A+zR8f/HP7XFt4y+D/hfxBB4F+PHiHwzoCXPnY0zTbcxeTbR7ZB8ibjjO Tz1o/wCCDX/BH/8AZo/ab/ZP8c6549+D/hfxNq2m/E3xFo1rc3fnb4bO3nRYYRtkA2oCQO9cV/wS T/4LW+Bf2cfGn7VF1qnwt/aA1tPiF8bde8V2aaH4Ikvn06C4MW23uwJB5N0u354jkrkc0f8ABET/ AILW+Bf2U/2X/Gnh/WPhb+0D4huNU+I2v63HceHPBEmo2sUVzOrLE7iQbZlxh0x8p70Afof/AMQ+ n7GP/Rvvgf8A8mP/AI7R/wAQ+n7GP/Rvvgf/AMmP/jteb/8AESR8L/8Aoh/7WH/htJf/AI9R/wAR JHwv/wCiH/tYf+G0l/8Aj1AHpH/EPp+xj/0b74H/APJj/wCO1jfEf/ggJ+xxpPw8166tvgD4JhuL XTriWJ1+0ZR1iYgj972IFch/xEkfC/8A6If+1h/4bSX/AOPVkfEH/g42+GOs+Atcs4/gn+1VFJd6 fPCry/DaVY0LRsAWPncAZ5PYUAfm7/w7q+CX/EJJ/wAL0/4V1oP/AAtz+zvN/wCEn/efbN//AAlP 2TP39v8Ax7/u/u9Pfmv1o+HH/BAT9jjVvh5oN1c/AHwTNcXWnW8srt9oy7tEpJP73uSa/HH/AIeb eFf+IWT/AIZ9/wCED+Lv/CSfYPJ/4SH/AIRd/wDhGM/8JN9tz9u37cbPkzt/1ny+9fqR8Pv+Djb4 Y6N4C0Ozk+Cf7VUslpp8ELPF8NpWjcrGoJU+dyDjg9xQB8/ftxf8Eg/2afhv/wAFlv2Kfh/ofwh8 L6b4N+IkfjI+JNKi87yNXNppSTW3mZcn93ISwwRz1zX3B/xD6fsY/wDRvvgf/wAmP/jtfnX+2d/w Wo8C/FD/AIK5/sd/Ei0+Fv7QGn6X8M4/Fy32m6h4Ikt9W1T7bpiwp9it/MJn2MN0mCNi8819mf8A ESR8L/8Aoh/7WH/htJf/AI9QB82/8EKf+CP/AOzR+0t+z98WtU8d/B/wv4l1DQ/i94k0Gwnu/O3W tjbyQiCBdsg+VAzYzzz1qb/g31/4I9/sz/tTf8EufBnjT4hfB/wt4q8U6hqutQXGo3nnedKkOqXM USnbIB8saKo46LXCf8EUv+C1vgX9ln4FfFLSdX+Fv7QPiCbxB8VvEPiGGbw94Ik1CC3huZISsMri QbLhNp3x87cjk5qb/ghH/wAFsfAn7I3/AATW8I+Bda+Fn7QXiTUNN1PWJ3v/AA14Hk1LTZRPqVzM oSYSAMyq4Vhj5WDDtQB+hP8AxD6fsY/9G++B/wDyY/8AjtH/ABD6fsY/9G++B/8AyY/+O15v/wAR JHwv/wCiH/tYf+G0l/8Aj1H/ABEkfC//AKIf+1h/4bSX/wCPUAekf8Q+n7GP/Rvvgf8A8mP/AI7R /wAQ+n7GP/Rvvgf/AMmP/jteb/8AESR8L/8Aoh/7WH/htJf/AI9R/wARJHwv/wCiH/tYf+G0l/8A j1AHzb/wcGf8Ef8A9mj9lj/gmxrXi/4e/B/wv4V8S2/iLRLSPULPzvNSKa/hjlQbpCMMjFTx0Nfb X/EPp+xj/wBG++B//Jj/AOO1+eP/AAXe/wCC1vgX9rr/AIJ5ax4L0X4W/tA+G7651/Rrxb3xL4Ik 03T1WC+ilZWmMhAdgpCjHzMQK+xv+Ikj4X/9EP8A2sP/AA2kv/x6gD6e/ZS/4Jq/An9hzxLqmsfC b4a+H/A+p63bLZ31xp/m7rmFX3hG3uwwGGeK9yr5k/YT/wCCpvhH9v3xlrmieHfh/wDGTwfPoNkt 9NP4z8KPo9vcKzhAkTs7b3BOSvpzX03QAUUUUAFFFFABRRRQAUUUUAFFFFABRRRQAUUUUAFFFFAB RXA/tP8AgHxv8UPgR4h0H4b+O1+GfjbUIo00vxMdIh1YaU4lRmb7NMRHLuRXTDdN+eoFfE3/AA7m /b8/6SFW/wD4ZjRf/iqAD/gmf/ynb/4KJ/8AXXwF/wCme4r9F6/B39iL9jP9rfxV/wAFWf2yPD/h n9sKHwv468MyeEh4t8Un4aaZeDxgZtOme0ItXby7X7PGGj/d58zdubkV9l/8O5v2/P8ApIVb/wDh mNF/+KoA/Reivzo/4dzft+f9JCrf/wAMxov/AMVR/wAO5v2/P+khVv8A+GY0X/4qgD9F6K/Oj/h3 N+35/wBJCrf/AMMxov8A8VR/w7m/b8/6SFW//hmNF/8AiqAPn/8AYi/5V7P27/8AsN/E/wD9I3r9 B/8Agjx/yih/Zt/7JroH/pvhr8Uf2X/2Vv2mNe/4I+/tXeJNE/agj0L4e+HtT8cx+J/CJ8A6fcHx VJb2zG+cXjHzbb7UuVxGMRZytfX/APwTi/YO/bY8bfsAfBXWPB/7csHgzwpqngnSLrR9APwm0m/O jWj2cTQ2v2iRt83loVTe3Lbcnk0Ae3/8F4f+SyfsLf8AZxXh7+UtfohX4R/8FXv2Mf2ufh78Sf2V oPHn7YkPj+88QfGXR9M8M3I+Gemab/wi2qOJPJ1IrE2Lny8H9zJ8jZ5r7F/4dzft+f8ASQq3/wDD MaL/APFUAT/8EdP+Ui3/AAUC/wCylaf/AOkT1B/wbtf8gr9sj/s5rxh/Kzr46/4JwfsY/tc+Nv2y v2u9M8HftiQ+C/EXhvxtZ2virWD8M9Mv/wDhLbtrVmS6EMjbbXauV2R5Bzmof+COH7Gf7W/xMsP2 kW+Hf7YUPw3XQ/jh4j0rxCp+Gmmar/wkerxC2+0ap+9YfZ/O3J+4T5E2cdTQB+8VFfnR/wAO5v2/ P+khVv8A+GY0X/4qj/h3N+35/wBJCrf/AMMxov8A8VQB+i9FfnR/w7m/b8/6SFW//hmNF/8AiqP+ Hc37fn/SQq3/APDMaL/8VQB8n/ss/wDKoP8AGf8A65eK/wD06yV+u/7EP/Jl3wh/7ErRv/SGGv57 fgP+zH+0Zq//AAbr/Evxppf7Skek/CGxj186j8Pf+EGsZm1IR37rcD+0WPnx+dIC/wAo+TOBxX6I /svf8E/P26Ne/Zn+Hd9of7e1voWi3nhjTZ9P00/CDR7j+z7drWJo4PMZt0mxCq7m5bbk8mgD0H/g r7/ykz/4J8/9lA1j/wBIIq/RCvwj/wCCiv7GP7XPgv8Abf8A2QdK8X/tiQ+MvE3iTxdqVt4U1sfD PTLEeEblbRGkuDBG2y63oQuyTAXGRzX2L/w7m/b8/wCkhVv/AOGY0X/4qgCf/ggf/wAlH/bl/wCz lfFP84aP+DaT/kyT4j/9lg8Vf+lKV8Z/8El/2Mf2ufiJ4z/ami8A/tiQ/D658P8Axs17S/E0x+Ge man/AMJRq0Zi8/UwsrYtvNyv7iP5E28daP8AgiT+xj+1z8U/2YPGl/8ADX9sSH4YaJa/EbXrK80x vhnpmr/bL6OdRPeebMwZPNbB8sfKmMCgD93KK/Oj/h3N+35/0kKt/wDwzGi//FUf8O5v2/P+khVv /wCGY0X/AOKoA/Reuf8Aiz/ySvxN/wBgq6/9EvXwR/w7m/b8/wCkhVv/AOGY0X/4qsj4g/8ABO/9 vSz8Ba5Nd/8ABQK3vLWLT53mg/4U3o0fnII2LJuDZGRkZHIzQB8nf86OX/cK/wDdzr9v/hN/ySvw z/2CrX/0SlfzWf8ADNX7Q3/ELX/wn3/DR0f/AAo/7Bv/AOFYf8IRY7tn/CS+Ts/tTP2j/j6/0jOP 9j7tfqL8Pv8Agnf+3peeAtDmtP8AgoFb2drLp8Dwwf8ACm9Gk8lDGpVNxbJwMDJ5OKANf/goz/yn 4/4J6/8AXLx9/wCmVK/Revwd/bM/Yz/a38Mf8Fbv2PfDviL9sKHxJ4+8SR+LT4T8WD4aaZaDwiId MV7sG0RvLuvtEWI/3hHl43LzX2X/AMO5v2/P+khVv/4ZjRf/AIqgCf8A4Nt/+TX/AI4f9l18W/8A o2CrH/Brv/yhq8Af9hrxD/6ebyviv/giv+xj+1z8UPgX8Ubv4b/tiQ/DPS9P+KviHT9SsW+Gemat /amoxyRC4v8AfMwMfnEqfKX5U28dam/4IUfsX/td/Fn/AIJs+Edc+F/7Y0Pwq8G3Gp6xHa+HG+GW maybSRNSuUmf7TMwdvMlV5MHhd+0cAUAfutRX50f8O5v2/P+khVv/wCGY0X/AOKo/wCHc37fn/SQ q3/8Mxov/wAVQB+i9FfnR/w7m/b8/wCkhVv/AOGY0X/4qj/h3N+35/0kKt//AAzGi/8AxVAE/wDw dF/8okfEH/Y1eHf/AE5wV+iFfhH/AMF2f2Mf2uPhL/wT11fWfih+2JD8VfCMev6PDL4fX4Z6Zoxm me+iWGX7RCxceXIVfaOG24PBr7F/4dzft+f9JCrf/wAMxov/AMVQB+i9FfMH7Bv7L/7SHwF8aa7e /G39piP46aPfWSQadp6+BLDw7/Zs4cFpvMtyWkyuV2twM5r6foAKKKKACiiigAooooAKKKKACiii gAooooAKKKKAPPf2uPEt/wCDP2UvidrGlXc1hqmk+E9VvLO5hbbJbzR2crpIp7MrAEH1FfGn/BKH 9nbWv2t/+Cc/wj+JPjL41fH658UeMNCS/wBSltvHFzbwvKXdSVRRhRhRwK+vf23v+TLvi9/2JWs/ +kM1fmb/AMEff+C+v7I/7M3/AATL+DXgLxx8YLPQfFvhfw+llqmnvoOqztazCRyVLxWrI3BHKsRz QB6T/wAFb/BHiv8AYN8B/BXxP4D+Mvxua+8RfGHw34Y1GHVfF899a3VhcyTGaJo3GPm8tRn0yO9f pzX4qf8ABX//AILIfs2ft7+EvgD4J+EnxOtfGHii2+N/hXVZLGPR9RtCttHNMjyb7i3jThpYxjdn 5unBx+1dAH50f8Ez/wDlO3/wUT/66+Av/TPcV+iskixIzMyqqjJJOABX51f8Ez/+U7f/AAUT/wCu vgL/ANM9xX3f8b/+SLeL/wDsCXv/AKIegCx/wtnwr/0M3h//AMGMP/xVH/C2fCv/AEM3h/8A8GMP /wAVX4Xf8Ecv+CMX7M/7Tv8AwTY+F/jrx18L7XXvFfiC1vJNQv31nUYGuGS/uYlOyK4VBhEQfKo6 euTX0z/xD0fsdf8ARGLH/wAKDVv/AJKoA/Tj/hbPhX/oZvD/AP4MYf8A4qr2h+MdJ8TySLpuqabq DQgF1trlJigPQnaTivy5/wCIej9jr/ojFj/4UGrf/JVY/wDwRQ/Zp8D/ALI3/BZ/9qzwN8O9Cj8N +FdN8I+GJrawS5muFiaWNpJDvmd3OXZjyxxnjAoA9O/b3/4JT+Af2YP+CZ/7Td94G8V/Ffw/Y3nh PxT4qu9Ft/FtwNKvL2axnlmMlv8AdZJCoDIeCvFb3/BKz9hK08a/8Ez/AIA6w3xW+OumNqnw/wBE ujaad43ubazti9jC3lwxKMJGucKo4AAFe+f8Fdf+UVP7Sn/ZL/En/psuKr/8EeP+UUP7Nv8A2TXQ P/TfDQB8N/8ABaH9jS1+H3xX/Y1gT4lfGTWP+Eg+PGhaYz6r4vuLt7AOJP39sWH7mdcfLIORk192 f8O67L/osn7RH/hwLr/Cvnf/AILw/wDJZP2Fv+zivD38pa/RCgD8i/8AglR+xpa+Nf28f239Mb4l fGTS18OfECxtVudN8X3Ftc6iGtHbzLqRRmaQdAzcgcV+h37G37D3gL9gPwX4u03wXJrn2fxl4ju/ GGuXmtao99cXeo3EcSzzvK/PzCFWPbO496+Vf+COn/KRb/goF/2UrT//AEievrj9vT/kxn40f9iJ rn/pvnoA7j/hbPhX/oZvD/8A4MYf/iqP+Fs+Ff8AoZvD/wD4MYf/AIqvxO/4Je/8ESP2Xfj/AP8A BPr4S+NPF/wrtNY8TeJPD8N7qN62talCbmVi2WKR3CovToqgV7z/AMQ9H7HX/RGLH/woNW/+SqAP 04/4Wz4V/wChm8P/APgxh/8Aiq0NC8V6X4oEh0zUtP1EQ48w2twk3l5zjO0nGcHr6V+W/wDxD0fs df8ARGLH/wAKDVv/AJKp3/Bvv8BvCf7Mf7f/AO3N4F8C6Omg+FPD+q+D49PsEnlnW3V9Ou5WG+Vm c5d3PzMevpgUASf8FPv+CU/gH9jL/gjn8crT4f8Aiv4r6R4f0nw/f6lFoDeLbiTSZJZZRJLvtz8r KzsSQepNfQn7H37AFnr37JXwtvm+Lnx+tGvPCOkzmC18d3UUEO6zibZGgGFQZwFHQACtb/gvL/yh 1/aG/wCxPuf5pXtH7EP/ACZd8If+xK0b/wBIYaAPzb/4KlfsaWvgz/goV+w7pS/Er4yakviTxvqt s11qPi+4ubrTttlG2+1kbmFznBZeSOK+7P8Ah3XZf9Fk/aI/8OBdf4V87/8ABX3/AJSZ/wDBPn/s oGsf+kEVfohQB+Rf/BFH9jS1+Ifj39saKT4lfGTR/wCwP2gfEmlq2k+L7iza/EZh/f3JX/W3DZ+a Q8tgV+in7Hv7G3gH/gn18G9Q8J+CW1K10G61W78QXs+r6i13M91cENPK8r9iVB54HNfJ/wDwQP8A +Sj/ALcv/Zyvin+cNe8f8Fmv+UTH7SH/AGTrW/8A0jloA94/4Wz4V/6Gbw//AODGH/4qj/hbPhX/ AKGbw/8A+DGH/wCKr8eP2Iv+CE/7KPxX/Yv+EPinxB8JLPUde8S+CtG1XUrttc1SM3VzPYwyyyFU uQq7nZjhQAM8ADivT/8AiHo/Y6/6IxY/+FBq3/yVQB+nH/C2fCv/AEM3h/8A8GMP/wAVVgaho3xI 0C/s7XULPUrO5ie1uDaXKybVdSCMqTg4Jr8v/wDiHo/Y6/6IxY/+FBq3/wAlVe/4NuvhH4d+AvxZ /bL8G+EtNXR/DXhv4nR2Om2SyyTC2hS1IVA8jM7Y9WYn3oA4n/gtb/wS+8EfsP8A/BCf4paV4B8W fFaz8L+E7SwGn+HLvxXPc6Ogm1u0Zw1u3ysPMleTno5B7V9ufDL/AIJ6Wd58N/D83/C4P2hI/N0y 2fZH4+ulRcxKcAY4A7CvM/8Ag5p/5Qc/Hf8A69dJ/wDT1YV9ofCb/klfhn/sFWv/AKJSgD8pf28/ 2N7Xwz/wW1/YY8Or8SPjHfR+JIvGxbUL3xdcTajp3k6Qjj7LOfmh3/dfb95eDX3l/wAO67L/AKLJ +0R/4cC6/wAK+cP+CjP/ACn4/wCCev8A1y8ff+mVK/RegD8i/wDggL+xpa/E/wDZ1+MN3J8SvjJo ZsPjL4n08RaL4vuLGKcRyQjzpFXh5mz8znlsCv0c/ZE/ZM8A/wDBPf8AZx034d+CPtWl+DdAlubq I6nfm4kja4neeVnlfrmSRjz0yBXyP/wbb/8AJr/xw/7Lr4t/9GwV6R/wcF/8oZP2gv8AsWv/AG4h oA+qP+Fs+Ff+hm8P/wDgxh/+Ko/4Wz4V/wChm8P/APgxh/8Aiq/Jf9nr/ggf+yR41+AXgfWNT+D9 ndalq3h+wvbuY69qqmaaS2jd2wtyAMsScAAc8Cuw/wCIej9jr/ojFj/4UGrf/JVAH6cf8LZ8K/8A QzeH/wDwYw//ABVamieI9P8AE1s02m31nqEMbbGktp1lVWwDglSRnBBx71+Wf/EPR+x1/wBEYsf/ AAoNW/8Akqtj/g188AaR8KPhV+1R4W8P2a6doPhr4/8AiLStNtBI8gtraCGziijDOSzbUVRliScc knmgDsP+Dov/AJRI+IP+xq8O/wDpzgr9EK/O/wD4Oi/+USPiD/savDv/AKc4K/RCgD89v25vFXjD x9/wWu+APwftfiF4+8I+BfFngbXdV1Wy8NazJprXdzbEmJ2dOcjGPccV9A/8O67L/osn7RH/AIcC 6/wr4x/4Kmftb/Dz9iP/AIL0/s0/ED4o+JI/CvhCw+HniG1n1CS0uLpY5JWKRrsgR5DuYgZC4HfF ezf8RNP7Df8A0XfT/wDwmta/+Q6APaf+CbOo6xJ8KfHOl6x4i8Q+KW8L/EPxFoVlfa3ete3xtLa+ eOFHlbltqgDJr6Hr5P8A+CPnxl8NftD/ALPnjrxz4N1Rda8K+Kvib4n1LSr9YZIVu7eTUHKOEkVX XI7MoPtX1hQAUUUUAFFFFABRRRQAUUUUAFFFFABRRRQA2eCO6geORFkjkUq6MNysDwQR3BrB/wCF TeFf+hZ8P/8Aguh/+Jqr8c/iQ3wb+CfjDxetmuoN4V0O91gWpl8oXJt4Hm8vfg7d2zGcHGc4PSvl f9j79tr9pT9tT9mXwb8VPDHwh+BunaB4409dSsbbVPibqkd5DGWZQJFj0J0DfKfuuw96APrS3+F/ hm0njli8O6FHJGwdHSwiVkI5BB28Eetb1fDf7Xf/AAUZ+PP7CmmfD/WPiD8IvhHdaD468c6V4ID+ HviLqN5eWk1+7hZ/Kn0aBGRFjckeYCTtHckfclAH50f8Ez/+U7f/AAUT/wCuvgL/ANM9xX3f8b/+ SLeL/wDsCXv/AKIevhD/AIJn/wDKdv8A4KJ/9dfAX/pnuK+7/jf/AMkW8X/9gS9/9EPQB+a//Bvz /wAoffgt/wBeN/8A+nO7r7Ir43/4N+f+UPvwW/68b/8A9Od3X2RQAV8o/wDBN/8A5T8ftdf9ib4T /wDRFfV1fKP/AATf/wCU/H7XX/Ym+E//AERQB9Xf8Fdf+UVP7Sn/AGS/xJ/6bLiq/wDwR4/5RQ/s 2/8AZNdA/wDTfDVj/grr/wAoqf2lP+yX+JP/AE2XFV/+CPH/ACih/Zt/7JroH/pvhoA+f/8AgvD/ AMlk/YW/7OK8Pfylr9EK/O//AILw/wDJZP2Fv+zivD38pa/RCgD87/8Agjp/ykW/4KBf9lK0/wD9 Inr64/b0/wCTGfjR/wBiJrn/AKb56+R/+COn/KRb/goF/wBlK0//ANInr64/b0/5MZ+NH/Yia5/6 b56APjD/AIItf8oqvgX/ANitb/zavp+vmD/gi1/yiq+Bf/YrW/8ANq+n6ACvmH/gjh/ylZ/4KAf9 hjwZ/wCmm5r6er5h/wCCOH/KVn/goB/2GPBn/ppuaAPbv+C8v/KHX9ob/sT7n+aV7R+xD/yZd8If +xK0b/0hhrxf/gvL/wAodf2hv+xPuf5pXtH7EP8AyZd8If8AsStG/wDSGGgD4/8A+Cvv/KTP/gnz /wBlA1j/ANIIq/RCvzv/AOCvv/KTP/gnz/2UDWP/AEgir9EKAPzv/wCCB/8AyUf9uX/s5XxT/OGv eP8Ags1/yiY/aQ/7J1rf/pHLXg//AAQP/wCSj/ty/wDZyvin+cNe8f8ABZr/AJRMftIf9k61v/0j loA8n/4Jvf8AKO/4C/8AZOvD3/pst69orxf/AIJvf8o7/gL/ANk68Pf+my3r2igAr5g/4IM/8nT/ ALc//ZWV/wDSY19P18wf8EGf+Tp/25/+ysr/AOkxoA7f/g5p/wCUHPx3/wCvXSf/AE9WFfaHwm/5 JX4Z/wCwVa/+iUr4v/4Oaf8AlBz8d/8Ar10n/wBPVhX2h8Jv+SV+Gf8AsFWv/olKAPgj/goz/wAp +P8Agnr/ANcvH3/plSv0Xr86P+CjP/Kfj/gnr/1y8ff+mVK/RegD87/+Dbf/AJNf+OH/AGXXxb/6 Ngr0j/g4L/5QyftBf9i1/wC3ENeb/wDBtv8A8mv/ABw/7Lr4t/8ARsFekf8ABwX/AMoZP2gv+xa/ 9uIaAHfspf8AJrnw1/7FXS//AEkirvq4H9lL/k1z4a/9irpf/pJFXfUAFfMH/Bt//wAgr9sT/s4/ xV/K1r6fr5g/4Nv/APkFftif9nH+Kv5WtAGv/wAHRf8AyiR8Qf8AY1eHf/TnBX6IV+d//B0X/wAo kfEH/Y1eHf8A05wV+iFAGbrng3R/E8scmpaVpuoSRDajXNqkxQegLA4qj/wqbwr/ANCz4f8A/BdD /wDE181/taf8FBfHXwi/b3+GfwB+H3w/8J+Kde+I/h3UfEKal4h8UXGi2dktmTvjPkWN07FlGQQo 54PrXWf8Jz+1l/0S39nf/wAOjrH/AMz9AHv2kaLZ+H7JbawtLWxt1JIit4ljQE9ThQBzVqvI/wBj L9oTxB+0X8Ntcv8AxV4d0fwz4i8NeJ9U8MX9npOqyapZGWxuGhaSKeSC3dlfbkbolIr1ygAooooA KKKKACiiigAooooAKKKKACiiigDy/wDbe/5Mu+L3/Ylaz/6QzV4f/wAEB/8AlDb+z3/2KsX/AKNk r6k+JngCx+LHw38QeFtUa4XTPEum3OlXZgcJKIZ4mifYSCA21jgkHB7Gvz98Mf8ABsd8G/BGgWuk 6L8Xv2oNI0uxTyrazsviG1vb26f3UjSAKo56ACgC9/wcff8AJvv7Pf8A2cB4Q/8AQ7mv0Qr81/GP /Bvz+zv8GP7H8ffED42fHAaB8P8AV7LxEtx40+I8baNZ3NvMrQyTG4iEajeQuSyk7yARmvrD/h6b +zH/ANHG/Af/AML/AEn/AOP0AfMH/BM//lO3/wAFE/8Arr4C/wDTPcV+gPj3w4/jHwLrWkRyLDJq lhPZrIwysZkjZASPbOa/Kf8A4J5/t5fA3wb/AMFo/wBvPxPrHxm+FGleG/Fsvgk6Hq154u0+Cx1k QaVOk/2aZpQk3luQr+WW2kgHBr72/wCHpv7Mf/RxvwH/APC/0n/4/QB8D/s0/wDBGH9tj9kn4IaD 8O/BP7T3wtsPC/hqOSKwt5/Av2iSNZJnmbMj5ZvnkY8nviu6/wCHd3/BQL/o6r4S/wDhvUr6+/4e m/sx/wDRxvwH/wDC/wBJ/wDj9H/D039mP/o434D/APhf6T/8foA+Qf8Ah3d/wUC/6Oq+Ev8A4b1K 9I/4Je/8Exfi5+yZ+1n8V/i98YPif4X+I3iT4maRpulO+j6K2mLALPcqkpnbyhUcAcjJr3b/AIem /sx/9HG/Af8A8L/Sf/j9H/D039mP/o434D/+F/pP/wAfoAz/APgrr/yip/aU/wCyX+JP/TZcVX/4 I8f8oof2bf8Asmugf+m+GvH/APgqT/wUh/Z38e/8E0v2gtD0P49fBfWta1j4c6/ZWGn2HjfTLi6v p5NOnSOKKJJizyOxCqqgkkgAE1D/AMEpv+Cj/wCzz8P/APgmV+z/AKHr3x5+DGia3o/w90Ozv9Pv /G2mW11ZTx2MKvFLE8wZHVgQVYAgggigDF/4Lw/8lk/YW/7OK8Pfylr9EK/Jf/gtT+3r8DPid8WP 2Mbjw18aPhP4ht/DPx60LV9Yl0zxdp92mlWUYk8y5uDHKRFCuRmR8KM8mvvD/h6b+zH/ANHG/Af/ AML/AEn/AOP0AfM//BHT/lIt/wAFAv8AspWn/wDpE9fb/wC0R8MpvjX+z/468G291FY3Hi7w9f6L FcyIWS3e5tpIQ7AckKXBIHXFfmR/wSj/AG9fgZ8P/wBvX9uPVte+NHwn0PSfFXxCsbzRb2/8Xafb W+sQLZurS20jyhZkDEAshIB4zX3h/wAPTf2Y/wDo434D/wDhf6T/APH6APhP4C/8Ef8A9uH9mv4O eHfAfhP9qD4V2fhvwtZrY6fBN4DE7xRLnALtlmPPUmuu/wCHd3/BQL/o6r4S/wDhvUr6+/4em/sx /wDRxvwH/wDC/wBJ/wDj9H/D039mP/o434D/APhf6T/8foA+Qf8Ah3d/wUC/6Oq+Ev8A4b1K9e/4 JMf8E2vid+xH8Wfjl47+K/xF8OfETxV8ZrrR7m4udI0ltNjgNhBcQcx52/MksYG0D7hJ617B/wAP Tf2Y/wDo434D/wDhf6T/APH6P+Hpv7Mf/RxvwH/8L/Sf/j9AHn//AAXl/wCUOv7Q3/Yn3P8ANK9o /Yh/5Mu+EP8A2JWjf+kMNfGv/Baz/goj+z/8T/8AglJ8dvD/AIZ+Onwd8Ra9q3hW4t7HTdM8Z6bd 3l5ISuEiijmLux9FBNeufsd/8FM/2b/Df7I3ws07Uf2gvgjp+oaf4Q0m2urW58daXFNbSpZQq8bo 04KsrAgqQCCCDQB5b/wV9/5SZ/8ABPn/ALKBrH/pBFX6IV+S/wDwVQ/b1+Bnj7/gof8AsM6zoPxo +E+taP4V8carda3fWHi7T7m20eF7KNUkuZElKwozAgM5AJGBX3h/w9N/Zj/6ON+A/wD4X+k//H6A Pmf/AIIH/wDJR/25f+zlfFP84a+vP25P2e7v9rT9jj4ofDGx1K30e98f+Gb/AEGC+uIzJFaPcQPE JGVcFgpbJA5OK/Ov/giV+3r8DPhd4+/bKm8TfGj4T+HYfE37QniTWNIfU/F2n2a6rYymHyrq3Mko EsD4O2RMq2DgmvvD/h6b+zH/ANHG/Af/AML/AEn/AOP0AfEfwr/4JS/t2/Br4YeG/B+g/tSfCm30 Pwppdto+nRSeARK8VtbxLDEpduWIRFGTyetb3/Du7/goF/0dV8Jf/DepX19/w9N/Zj/6ON+A/wD4 X+k//H6P+Hpv7Mf/AEcb8B//AAv9J/8Aj9AHyD/w7u/4KBf9HVfCX/w3qV7V/wAEhv8AgnF8QP2B 5PjBq3xK8eaD8QPFPxb8Sx+I7u90rTG0+GOQQ+Ww8snAyeRtwBXqn/D039mP/o434D/+F/pP/wAf o/4em/sx/wDRxvwH/wDC/wBJ/wDj9AHg/wDwc0/8oOfjv/166T/6erCvtD4Tf8kr8M/9gq1/9EpX 5p/8HEP7f/wH+Mn/AARu+NPhrwf8bPhH4q8R6pbaWtnpWj+MNOvr27KavZSMI4Ypmd9qKzHaDhVJ 6A19cfDH/gqF+zPY/DXw9BP+0R8C4ZodMtkkjfx7pSsjCJQQQZ8gg8YNAHz5/wAFGf8AlPx/wT1/ 65ePv/TKlfovX5I/t8ft5fA3xd/wW9/YT8VaT8ZvhRqnhjwnF43Gt6vaeLtPmsNGM+kJHB9pnWUx w+Y42pvI3NwMmvvb/h6b+zH/ANHG/Af/AML/AEn/AOP0AfM//Btv/wAmv/HD/suvi3/0bBX1F/wU i/ZQvv25f2G/iR8JdN1e00G+8c6V/Z8OoXULTQ2reaj7mVSCR8mMA96+Bf8Ag38/b1+Bnwg/Zy+M dl4t+NHwn8L3mpfGfxRqdpBq/i7T7GW6tJZIDFcRrLKpeJwDtcZVsHBNfeH/AA9N/Zj/AOjjfgP/ AOF/pP8A8foA+L/Bv/BML9vbwF4Q0nQ9N/am+E8WnaLZw2FqjfD9XZIokCICTySFUcnrWl/w7u/4 KBf9HVfCX/w3qV9ff8PTf2Y/+jjfgP8A+F/pP/x+j/h6b+zH/wBHG/Af/wAL/Sf/AI/QB8g/8O7v +CgX/R1Xwl/8N6le7/8ABHP/AIJ1+Mv+CdXwr+Jmn+PfGmi+OvE/xL8e33jm+1HS9PaxhE13DbrI vlsTj95E7fLgAOABxXo//D039mP/AKON+A//AIX+k/8Ax+j/AIem/sx/9HG/Af8A8L/Sf/j9AHzP /wAHRf8AyiR8Qf8AY1eHf/TnBX6IV+S//Bx/+3r8DPjV/wAEu9c0Hwb8aPhP4t1yXxLoM6adovi7 T7+7eOPUYXkcRRSs5VVBZjjAAJOBX3h/w9N/Zj/6ON+A/wD4X+k//H6APmf9qH/lZL/Ze/7Jr4n/ APZq/RCvg39pH9jr9l3/AILQfHDQfFGjfHa51Txn8PNIls4X+FvxDslurS0nky7S/Z/NkVWb5c5U HOOawf8AiG3+F/8A0XD9rD/w5cv/AMZoA+iP+Ccv/IqfFv8A7K34s/8ATjJX0RXkn7E/7Gnhn9hD 4GQ+AfCmqeKtb02PULrU5L7xFqP9oajcz3MhklaSbau8lieSM+5r1ugAooooAKKKKACiiigAoooo AKKKKACiiigAooooA534rfCXwv8AHX4fal4T8Z+H9J8UeGdYRY77S9UtUurS8VXV1EkbgqwDKrDI 6qDXhP8Aw5l/ZL/6Nv8Agv8A+ElZ/wDxuvpiigD8ev8Agn5/wTV/Z98e/wDBZT9urwfrfwX+Gmre FfA8vgseH9JuvD9tLZ6KLnS55Lj7PGU2x+Y6hm2gbiATX3b/AMOZf2S/+jb/AIL/APhJWf8A8bri v2IP2RfH3wa/4Ku/tlfE/wARaLHY+Cvi5J4SbwtfLewTNqIsNNmgusxI5ki2SOo/eKu7OVyOa4j4 if8ABfux8NftA/ET4feFP2Z/2mvildfDHXJNA1jU/BvhaPVbBLlBnG9JsrkHIDhTjnFAHtn/AA5l /ZL/AOjb/gv/AOElZ/8Axuj/AIcy/sl/9G3/AAX/APCSs/8A43XzP8VP+DkqH4F+AtQ8VeNv2Pv2 wvCPhjShGb3VtZ8Ex2NjaB5FiTzJpZ1Rd0jogyRlmUDkiv0m0TVE1zRrO9jVljvIUnRW+8oZQwB9 +aAPnH/hzL+yX/0bf8F//CSs/wD43R/w5l/ZL/6Nv+C//hJWf/xusX/gon/wVn0T/gnr8Vvhx4Hk +F/xV+Kniv4oQajcaPpXgbS4tSvHWxWJ58wmRXbCSb/kDYWNycAV5D/w/wAPEn/RjX7cH/huj/8A HaAJf+Cnv/BJv9mP4af8E3Pj94i8PfAP4S6Lr2g/DvXtQ07ULLwxaQ3NjcRadO8c0bqgKujqGDA5 BANQf8Esv+CT/wCzL8T/APgmr8A/EniL4CfCbXNf17wBol/qOoXvhm0mub64ksYXklkdkJZ2Yklj ySTXX6f+1hH/AMFqP+CQ/wAepvhj4N8U6Fruv6F4m8B2eheJRb2N8dUFg0Qif960ceZJlTLuu0g7 sAV7z/wTf+EHiD9n3/gn78FPAviyyXTfE/g/wRpGjataLPHOLa6gs4opUEkZZHw6kblJBxkEigD8 6v8Ags1/wTS/Z7+D3xW/Y5tfCvwW+Gfh238X/HbQ9D1uLT/D1tbrq1hKJPMtZwqDzImwMo2QcdK+ 5/8AhzL+yX/0bf8ABf8A8JKz/wDjdcf/AMFYf2SvHn7UHxK/ZU1DwTo8erWnwx+M2j+LvEbvewW/ 2HTbcSebMBI6mQruHyR7nPYGvsigD8gf+CV//BNL9nv4oft2/tt6H4j+C3wz1zR/Bfj+xsNBsr3w 9bTQaPbtaOzRQIyERoWAJVcDNfc3/DmX9kv/AKNv+C//AISVn/8AG64//gm7+yX48/Z8/bM/a98X eLNGj03QPit43s9Z8M3C3sE51C1jtWjdykbs0WGIG2QKT6V5hdf8HD9hrPxL8feHfBf7Ln7U3xKg +HfijUPCOp6v4T8JR6pp/wBus5THKiyRzHBI2uFYBtsiEgZoA9//AOHMv7Jf/Rt/wX/8JKz/APjd H/DmX9kv/o2/4L/+ElZ//G6+bPH3/ByHafB/SLfVPG/7JP7XHgfQZ72CwbVvEHgyPT7GCWaQRxh5 ZZwoJZgAM5PbNfpXQB8z/wDDmX9kv/o2/wCC/wD4SVn/APG6P+HMv7Jf/Rt/wX/8JKz/APjdcx+3 9/wV+0X9g79oHwh8MY/hJ8YPiz4v8aaPPrdjYeBNIi1OdbeGQpIWiMqycYySqkAdSK8u/wCH+HiT /oxr9uD/AMN0f/jtAHN/8Fnf+CV/7Nnwd/4JYfHLxR4U+BPwq8O+ItE8LXF1p+paf4atbe6spQVw 8cioGVhnqDXrH7IX/BIX9lnxb+yb8L9V1T9nv4P6hqWp+EtKu7u6uPC1pJLczSWcTPI7FMszMSST ySTWD8UPjxN/wXG/4Id/E/VPg/4T1601T4g6TqWg6Touuy21ndtdQT+Syu3mmFAWRsFnHHXB4r6/ /Zc8Fal8Nf2Zfh14c1i3W11jw/4Y03Tb6ESLIIZ4bSKORdykq2GUjIJBxwSKAPy7/wCCon/BNL9n v4Zf8FBv2IdA8O/Bb4Z6JonjTxtqtlr9jZeHraG31iCOyjdI7hFQCRVYkgNkAmvuf/hzL+yX/wBG 3/Bf/wAJKz/+N1x//BRj9krx58f/ANuL9j/xn4V0aPUvDvwo8X6lqvie5a9ggOn201okcbhJHV5c upGIwxHUgCvsigD8gP8Agiz/AME0v2e/jJ48/bCh8WfBb4Z+I4fCPx/8R6Doiaj4etrhdK0+ExeV awBkPlwpk7UXAGTgV9z/APDmX9kv/o2/4L/+ElZ//G64/wD4JJ/sl+PP2WvGn7VF5430aPSbf4mf G3XvGXh1kvYLn7dpd0YvInIidjGW2n5JNrjHKivJfD3/AAcaWfxDv9e/4Qn9lD9rL4gaVoGsXehz av4a8HR6lp8lzbSGOVVljmK5BAODggMMgZoA+iv+HMv7Jf8A0bf8F/8AwkrP/wCN0f8ADmX9kv8A 6Nv+C/8A4SVn/wDG6+edT/4OLLLwV4i8L2njT9lP9q74ead4r16y8O2ur+J/B8em6el3dSCOJWlk mAyeW2jLEK2AcV+j1AHzP/w5l/ZL/wCjb/gv/wCElZ//ABuj/hzL+yX/ANG3/Bf/AMJKz/8AjdcX +3V/wWV0f9if9q3SPg3Z/Bn41fF3xnrHhZPF6W3gLRItVaGyN1Nalnj81ZBtkh5bbtHmJzk4rze7 /wCC/mvafaS3Fx+w/wDtuQwQIZJJH+Hm1Y1AySSZcAAc5oA8v/4ODf8AgmL+zr8A/wDgj58ZfF3g n4I/DDwn4o0e20xrHVdK8O2treWhfVrKNykiIGXcjupweQxHevrH4Z/8Ecv2UdS+HHh+4uP2dPg3 NcXGm20kkj+FLNmdjEpJJ2ckk5ryL9s/xZq3/BdP/g388Uar8EfC2qSap8WrOA6HousXNrZXRNnr sSzCSRpfIX5bSVxmTkYHU4r74+H2lT6D4C0Oxuk8u6s9PggmTIba6xqrDI4PIPIoA/JL9u//AIJq /s++Bv8AgtZ+w54N0f4L/DTS/CfjaLxqdf0e18P20dlrJttJSS3+0RBNsnlyEsu4HaeRX3b/AMOZ f2S/+jb/AIL/APhJWf8A8briv2zv2RfH3xd/4K5/sd/FTw/osd54H+E8fi5fFF+b2CJtPN/piwWu IncSS75AR+7VtvVsDmvs2gD8gf8Aggd/wTS/Z7+Ov7O/xg1Dxp8Fvhn4pvtJ+MnibR7K41Tw9bXU lrZwyQiG3RnQlY0BO1RwMnFfc3/DmX9kv/o2/wCC/wD4SVn/APG64/8A4Ip/slePP2PfgV8UtF+I OjR6LqXiX4reIfE+nRJewXQn0+7kiMEpaF2ClgrfIxDDHIFeM/DX/g5ItfjX4Uj8QeCP2RP2vfGn h2eaaCDV9C8Fx39jctFI0cgSaKdkba6spweCCDyKAPpb/hzL+yX/ANG3/Bf/AMJKz/8AjdH/AA5l /ZL/AOjb/gv/AOElZ/8AxuvC/C3/AAcFWNx8Z/h14N8Xfsw/tQ/DH/hZniey8J6Tq3i/wnHpenfb bqQJGrSSTc4G5iqBm2oxAOK/QygD5n/4cy/sl/8ARt/wX/8ACSs//jdH/DmX9kv/AKNv+C//AISV n/8AG687/a9/4LaaT+yz+15qXwX0n4F/Hj4veLtH0S21+8HgPQI9WS3tZyVVnUSiRQGABJULlgMn NcB4h/4OENU8JaBfarqn7E/7aum6XplvJd3l3dfD8QwWsMalnkkdpgqoqgksSAACTQB45/wcV/8A BNL9nv8AZ8/4Jj634l8C/Bb4Z+EfEEPiTQraPUdJ8PW1pcpHLqEKSIHRA21lJUjPIJFfc3/DmX9k v/o2/wCC/wD4SVn/APG68H/4KO6N4k/4LT/8EVdB1b4L+F766vviJeaH4i07SdUu7WyuIrWK/jll 8x3l8oMqIxwHOegyeK/RCgDyn9nz9hX4M/sm65qGp/DH4W+BPAOoatALW8udB0aCxluog24I7RqC yhucHjNerUUUAFFFFABRRRQAUUUUAFFFFABRRRQAUUUUAFFFFABRRRQAUUUUAFfnv/wRc/5PG/bz /wCyyyf+kiV+hFfnf4o/4If/ABE0r9ov4qePfhn+1p8RfhTb/FjxFJ4k1PR9I0G0mgW4cBR88j7m 2qMZwPpQBsf8HPn/ACgw+Ov/AFy0T/0+6dX3B8PP+RA0P/sH2/8A6LWvzd+Pn/BAf4wftR/CXV/A fxA/bi+LHijwjrwiGoaXeeGrHyboRTJNHu2uD8skaMMHqor9L9B0pdC0KysVcyLZwJAHIxuCqFz+ OKAPz6/b2/5WDv2B/wDsFePv/TMK/RCvj/8A4KPf8ErtW/bo+O/wp+JPhf4yeJvg54w+Etvqlvpe o6LpkN5M41COOKY5lYBf3aMnQ5Eh6YrzX/h0L+0l/wBJAfjL/wCE3p//AMVQBD/wbXf8mhfFz/st Xiv/ANHxV+iFfOP/AAS9/wCCesP/AATV/Z41TwInjTU/H1xrHiS+8TXmsX9mlpNPcXflmQFEZh95 Cc55LHivo6gAooooAK/Oj/g3a/5BX7ZH/ZzXjD+VnX6L1+beif8ABCD4lfCz4kfEnWPhj+2F8Svh rpHxM8Y6l41vtG0vw9ZyW8V5ey73w0jlmwqxpnjIjHAoA1P+DoL/AJRXXf8A2Ovhz/04xV+iFfmT 8Zv+CA3xX/aU8J2/hv4j/trfFPxp4Xj1C21GXSr/AMOWQgnlt5VljJKuDwyg9a/TagD87/2kP+Vl f9m//slXiL/0a1fohXxn/wAFA/8Agk7rv7ZP7U3gf4veDvjh4r+DPi/wPoVzoFtdaJpUF5JNDPIX kJMrALkHbjB4rgf+HQv7SX/SQH4y/wDhN6f/APFUAQ/8Gun/ACiR8P8A/Y1eIv8A05z1+iFfPv8A wTF/YHs/+Can7JGk/Cmx8UX3jGHTL+91A6peWi2s073Vw87AorMBguRnPNfQVABRRRQAV+d//BtJ /wAmSfEf/ssHir/0pSv0Qr80fhv/AMEEvin8BT4is/hr+2d8UPAfh3xBr174gbSNO8O2TQQXF1KZ JCC7knsM99o4oA3v+Dkj/k1/4H/9l18Jf+jZ6/RCvzV8c/8ABBj4ofG3V/CI+JX7ZXxO+IOgeEfE th4oh0fUvDtkkE11Zy74yWRww4LLnnAc8Gv0qoA/O/xV/wArUPhj/s2qb/1Ipa+8Piz/AMkr8Tf9 gq6/9EvXyL+3R/wSL8SftVftq6L8c/Avx88YfBXxbpPg1fBRbRNIt7xri0F5PdtlpWGNzyqCAP8A lkDnk1xOo/8ABHX9ozV9PuLW5/b9+Mk1vdRtFLG3hvT8OjAgg/N3BoA6D/g2W/5Qc/Aj/r11b/09 X9feFeI/8E5v2LLH/gnf+xh4J+Dem69deJrLwXFdRRanc2y28t1595PdEmNWYLgzleCchQe9e3UA FFFFABX57/8ABrv/AMoavAH/AGGvEP8A6ebyv0Ir8xfgZ/wQE+Ln7MPw7t/B/wAO/wBtz4q+EPCd lcXFza6XZeG7Hybdp5Xmk27nJ+aR2Y5PU0Adl/wXd/5Kf+w7/wBnIeGv/Qbiv0Ir857b/ghp8SfG Xxr+Fvir4mftefEj4oad8KvGFh4z0/RdW0Czit5bu0k3Ll43DLuUumecBzxX6MUAfnf8Ef8AlZw+ Nn/ZFdG/9Lkr64/b0/5MZ+NH/Yia5/6b56+bf2sv+COni345ftw618dPh7+0Z42+C/iLXvD1p4bv YdE0a2uhPbW7FwC8r92wcY42jmuO8Yf8EWP2gPH/AIS1TQdY/b2+MGoaRrVpLYX1rJ4bsNlzBKhS SNsNnDKxBx60Aex/8EGv+UOv7PP/AGJ9t/N6+uK8r/Yi/Zdtf2Kf2TPAPwosdXuNes/Aekx6VFqE 8Agku1Qn52RSQpOegJr1SgAooooAKKKKACiiigAooooAKKKKACiiigAooooAKKKKACiiigAooooA KKKKACiiigAooooAKKKKACiiigAooooAKKKKACiiigAooooAKKKKACiiigAooooAKKKKACiiigAo oooAKKKKACiiigAooooAKKKKACiiigAooooAKKKKACiiigAooooAKKKKACiiigD/2Q== "
       id="image10"
       x="0"
       y="0" />
  </g>
  <g
     inkscape:groupmode="layer"
     id="layer2"
     inkscape:label="Escrito"
     style="display:inline">
    <text
       xml:space="preserve"
       style="font-style:normal;font-weight:normal;font-size:5.33333349px;line-height:1.25;font-family:sans-serif;text-align:start;letter-spacing:0px;word-spacing:0px;text-anchor:start;fill:#000000;fill-opacity:1;stroke:none"
       x="42.363346"
       y="19.998941"
       id="text4489"><tspan
         sodipodi:role="line"
         id="tspan4487"
         x="42.363346"
         y="19.998941"
         style="font-style:normal;font-variant:normal;font-weight:normal;font-stretch:normal;font-size:16px;font-family:'Times New Roman';-inkscape-font-specification:'Times New Roman, '">bloco lógico</tspan><tspan
         sodipodi:role="line"
         x="42.363346"
         y="39.99894"
         id="tspan4491"
         style="font-style:normal;font-variant:normal;font-weight:normal;font-stretch:normal;font-size:16px;font-family:'Times New Roman';-inkscape-font-specification:'Times New Roman, '">reconfigurável</tspan></text>
    <text
       xml:space="preserve"
       style="font-style:normal;font-weight:normal;font-size:5.33333349px;line-height:1.25;font-family:sans-serif;text-align:start;letter-spacing:0px;word-spacing:0px;text-anchor:start;fill:#000000;fill-opacity:1;stroke:none"
       x="232.46465"
       y="35.99894"
       id="text4489-3"><tspan
         sodipodi:role="line"
         x="232.46465"
         y="35.99894"
         id="tspan4491-4"
         style="font-style:normal;font-variant:normal;font-weight:normal;font-stretch:normal;font-size:16px;font-family:'Times New Roman';-inkscape-font-specification:'Times New Roman, '">intra-conexões</tspan></text>
    <text
       xml:space="preserve"
       style="font-style:normal;font-weight:normal;font-size:5.33333349px;line-height:1.25;font-family:sans-serif;text-align:start;letter-spacing:0px;word-spacing:0px;text-anchor:start;display:inline;fill:#000000;fill-opacity:1;stroke:none"
       x="392.57605"
       y="66.947426"
       id="text4489-3-5"><tspan
         sodipodi:role="line"
         x="392.57605"
         y="66.947426"
         id="tspan4491-4-1"
         style="font-style:normal;font-variant:normal;font-weight:normal;font-stretch:normal;font-size:16px;font-family:'Times New Roman';-inkscape-font-specification:'Times New Roman, '">porta IO</tspan></text>
  </g>
</svg>
